<?xml version="1.0" encoding="utf-8"?>
<!-- Generator: Adobe Illustrator 16.0.0, SVG Export Plug-In . SVG Version: 6.00 Build 0)  -->
<!DOCTYPE svg PUBLIC "-//W3C//DTD SVG 1.1//EN" "http://www.w3.org/Graphics/SVG/1.1/DTD/svg11.dtd">
<svg version="1.1" id="레이어_1" xmlns="http://www.w3.org/2000/svg" xmlns:xlink="http://www.w3.org/1999/xlink" x="0px"
	 y="0px" width="829.602px" height="371.282px" viewBox="0 0 829.602 371.282" enable-background="new 0 0 829.602 371.282"
	 xml:space="preserve">
<g>
	<g>
		
			<line fill="none" stroke="#FFD45C" stroke-width="2.4858" stroke-linecap="round" stroke-linejoin="round" stroke-miterlimit="10" x1="1.919" y1="111.754" x2="828.578" y2="111.754"/>
		<path fill="#FFD45C" d="M161.131,232.352c0,15.445-12.518,27.963-27.96,27.963s-27.959-12.518-27.959-27.963
			c0-15.438,12.517-27.957,27.959-27.957S161.131,216.915,161.131,232.352z"/>
		<g>
			<path fill="#6B6B6B" d="M73.357,299.215c-2.265,0.451-4.26,0.586-6.27,0.586h-1.05v-5.551h1.215v4.531
				c1.89-0.016,3.81-0.166,5.94-0.602L73.357,299.215z M68.527,305.952h7.785v0.988h-9v-3.479h7.29v-1.383h-7.334v-0.988h8.549
				v3.314h-7.29V305.952z M77.813,296.456v1.021h-1.995v2.969h-1.23v-6.779h1.23v2.789H77.813z"/>
			<path fill="#6B6B6B" d="M85.987,297.67c0,1.996,0.45,4.516,2.085,5.746l-0.78,0.885c-0.99-0.766-1.56-2.01-1.89-3.391
				c-0.3,1.395-0.855,2.715-1.875,3.51c-1.02-0.811-1.575-2.129-1.875-3.525c-0.345,1.365-0.915,2.625-1.875,3.406l-0.78-0.885
				c1.62-1.26,2.07-3.84,2.07-5.746v-1.635h-1.65v-1.004h3.81v1.004h-0.99v1.635c0,1.486,0.195,3.646,1.29,5.1
				c1.08-1.424,1.29-3.555,1.29-5.1v-1.635h-1.005v-1.004h3.72v1.004h-1.545V297.67z M91.717,300.042h-1.875v7.08h-1.23v-13.439
				h1.23v5.324h1.875V300.042z"/>
			<path fill="#6B6B6B" d="M92.979,308.051c0.93-0.406,1.485-1.125,1.5-2.041c-0.06,0.016-0.105,0.016-0.165,0.016
				c-0.525,0-1.005-0.33-1.005-0.961c0-0.584,0.48-0.959,1.035-0.959c0.72,0,1.155,0.615,1.155,1.619c0,1.441-0.84,2.566-2.19,3.135
				L92.979,308.051z"/>
			<path fill="#6B6B6B" d="M104.317,301.241c-1.995,0-3.495-1.379-3.495-3.33c0-1.934,1.5-3.299,3.495-3.299
				c2.01,0,3.525,1.365,3.525,3.299C107.842,299.862,106.328,301.241,104.317,301.241z M104.317,300.176
				c1.335,0,2.325-0.93,2.325-2.266c0-1.305-0.99-2.234-2.325-2.234c-1.305,0-2.295,0.93-2.295,2.234
				C102.023,299.247,103.012,300.176,104.317,300.176z M111.953,305.815v1.006h-9.06v-4.318h1.23v3.313H111.953z M111.547,303.506
				h-1.23v-9.824h1.23V303.506z"/>
			<path fill="#6B6B6B" d="M118.132,300.836c-1.335,0.059-2.625,0.074-3.735,0.074l-0.165-1.02c2.49,0,5.82-0.029,8.67-0.391
				l0.105,0.885c-1.185,0.182-2.43,0.314-3.645,0.391v2.654h-1.23V300.836z M115.297,296.545c0-1.41,1.35-2.34,3.314-2.34
				c1.965,0,3.315,0.93,3.315,2.34c0,1.441-1.35,2.355-3.315,2.355C116.647,298.901,115.297,297.987,115.297,296.545z
				 M125.663,305.815v1.006h-9.51v-3.914h1.23v2.908H125.663z M116.467,296.545c0,0.871,0.87,1.441,2.145,1.441
				s2.145-0.57,2.145-1.441c0-0.854-0.87-1.424-2.145-1.424S116.467,295.692,116.467,296.545z M124.087,301.616v-7.949h1.23v10.244
				h-1.23v-1.379h-2.73v-0.916H124.087z"/>
			<path fill="#6B6B6B" d="M128.107,308.051c0.93-0.406,1.485-1.125,1.5-2.041c-0.06,0.016-0.105,0.016-0.165,0.016
				c-0.525,0-1.005-0.33-1.005-0.961c0-0.584,0.48-0.959,1.035-0.959c0.72,0,1.155,0.615,1.155,1.619c0,1.441-0.84,2.566-2.19,3.135
				L128.107,308.051z"/>
			<path fill="#6B6B6B" d="M142.853,301.135c-1.53-0.494-2.685-1.559-3.255-2.895c-0.57,1.529-1.785,2.73-3.39,3.301l-0.63-0.975
				c2.025-0.705,3.375-2.445,3.375-4.381v-0.525h-3.015v-0.99h7.215v0.99h-2.97v0.525c0,1.756,1.275,3.33,3.255,3.99
				L142.853,301.135z M146.228,304.616c0,1.574-1.695,2.49-4.425,2.49c-2.76,0-4.44-0.916-4.44-2.49c0-1.561,1.68-2.475,4.44-2.475
				C144.532,302.141,146.228,303.055,146.228,304.616z M144.998,304.616c0-0.945-1.215-1.5-3.195-1.5c-2.01,0-3.21,0.555-3.21,1.5
				c0,0.961,1.2,1.516,3.21,1.516C143.782,306.131,144.998,305.577,144.998,304.616z M148.072,297.071v1.035h-1.995v3.689h-1.23
				v-8.113h1.23v3.389H148.072z"/>
			<path fill="#6B6B6B" d="M161.647,304.36v1.006h-12.209v-1.006h5.43v-3.27h1.23v3.27H161.647z M160.522,301.256
				c-2.055-0.436-4.17-1.83-5.04-3.75c-0.87,1.92-2.97,3.314-5.04,3.75l-0.51-1.02c2.355-0.42,4.905-2.4,4.905-4.635v-1.035h1.29
				v1.035c0,2.234,2.565,4.215,4.919,4.635L160.522,301.256z"/>
			<path fill="#6B6B6B" d="M163.237,308.051c0.93-0.406,1.485-1.125,1.5-2.041c-0.06,0.016-0.105,0.016-0.165,0.016
				c-0.525,0-1.005-0.33-1.005-0.961c0-0.584,0.48-0.959,1.035-0.959c0.72,0,1.155,0.615,1.155,1.619c0,1.441-0.84,2.566-2.19,3.135
				L163.237,308.051z"/>
			<path fill="#6B6B6B" d="M178.387,293.965h1.17v12.496h-1.17v-4.426h-2.085c-0.48,1.35-1.335,2.131-2.505,2.131
				c-1.74,0-2.865-1.801-2.865-4.695c0-2.881,1.125-4.68,2.865-4.68c1.17,0,2.04,0.779,2.505,2.129h2.085V293.965z M175.552,299.471
				c0-2.176-0.675-3.541-1.755-3.541c-1.065,0-1.755,1.365-1.755,3.541c0,2.189,0.69,3.555,1.755,3.555
				C174.877,303.026,175.552,301.661,175.552,299.471z M178.387,301.016v-3.09h-1.83c0.075,0.48,0.12,0.975,0.12,1.545
				s-0.045,1.064-0.12,1.545H178.387L178.387,301.016z M182.197,293.667v13.455h-1.17v-13.455H182.197z"/>
			<path fill="#6B6B6B" d="M191.797,301.407c-1.515-0.557-2.685-1.682-3.285-3.09c-0.555,1.59-1.755,2.818-3.36,3.42l-0.645-0.977
				c2.055-0.734,3.36-2.535,3.36-4.619v-1.664h1.23v1.693c0,1.846,1.335,3.555,3.315,4.26L191.797,301.407z M187.898,305.815h7.694
				v1.006h-8.924v-4.17h1.23V305.815z M197.002,297.792v1.02h-1.995v4.785h-1.23v-9.945h1.23v4.143h1.995V297.792z"/>
			<path fill="#6B6B6B" d="M198.367,308.051c0.93-0.406,1.485-1.125,1.5-2.041c-0.06,0.016-0.105,0.016-0.165,0.016
				c-0.525,0-1.005-0.33-1.005-0.961c0-0.584,0.48-0.959,1.035-0.959c0.72,0,1.155,0.615,1.155,1.619c0,1.441-0.84,2.566-2.19,3.135
				L198.367,308.051z"/>
			<path fill="#6B6B6B" d="M58.297,326.624h-5.475v4.336h-1.23v-4.336h-5.459v-1.004h12.165L58.297,326.624L58.297,326.624z
				 M46.882,323.61c2.43-0.33,4.695-1.801,4.695-3.465h-4.275v-0.99h4.29v-1.648h1.23v1.648h4.29v0.99h-4.29
				c0,1.648,2.28,3.135,4.68,3.465l-0.435,0.99c-2.085-0.316-4.005-1.352-4.86-2.807c-0.855,1.455-2.79,2.49-4.875,2.807
				L46.882,323.61z"/>
			<path fill="#6B6B6B" d="M66.788,318.93c0,3.824-1.755,7.289-6.104,9.463l-0.675-0.959c3.435-1.725,5.28-4.305,5.565-7.484h-4.935
				v-1.02H66.788z M72.427,323.969h-2.16v6.975h-1.23v-13.455h1.23v5.461h2.16V323.969z"/>
			<path fill="#6B6B6B" d="M85.897,326.159h-5.505v4.785h-1.23v-4.785h-5.43v-1.004h12.149L85.897,326.159z M74.453,323.055
				c2.34-0.346,4.665-1.891,4.665-3.66v-0.076h-4.245v-0.99h9.825v0.99h-4.215v0.076c0,1.77,2.325,3.314,4.695,3.66l-0.48,0.975
				c-2.085-0.359-4.08-1.484-4.89-3.076c-0.825,1.592-2.805,2.717-4.89,3.076L74.453,323.055z"/>
			<path fill="#6B6B6B" d="M99.711,324.374v0.99h-5.399v2.715h-1.23v-2.715h-5.595v-0.99H99.711z M90.277,329.639h8.07v1.004h-9.3
				v-3.84h1.23V329.639z M98.123,322.844h-9.044v-4.725h9.044V322.844z M96.907,319.11h-6.63v2.744h6.63V319.11z"/>
			<path fill="#6B6B6B" d="M105.833,321.075c0,2.369,1.53,4.814,3.42,5.76l-0.765,0.975c-1.425-0.766-2.64-2.34-3.255-4.186
				c-0.585,1.965-1.83,3.646-3.345,4.455l-0.735-0.99c1.935-0.988,3.465-3.568,3.465-6.014v-2.416h1.215V321.075z M113.886,323.969
				h-2.22v6.975h-1.23v-13.439h1.23v5.445h2.22V323.969z"/>
			<path fill="#6B6B6B" d="M123.098,319.995h-7.935v-0.99h3.345v-1.635h1.229v1.635h3.36L123.098,319.995L123.098,319.995z
				 M119.123,325.424c-1.92,0-3.21-0.93-3.21-2.385c0-1.439,1.29-2.371,3.21-2.371s3.225,0.932,3.225,2.371
				C122.348,324.495,121.042,325.424,119.123,325.424z M125.723,328.604c0,1.471-1.68,2.324-4.38,2.324
				c-2.715,0-4.379-0.854-4.379-2.324c0-1.484,1.665-2.324,4.379-2.324C124.042,326.28,125.723,327.12,125.723,328.604z
				 M119.123,324.495c1.23,0,2.055-0.57,2.055-1.455c0-0.871-0.825-1.439-2.055-1.439c-1.215,0-2.04,0.568-2.04,1.439
				C117.083,323.924,117.907,324.495,119.123,324.495z M124.507,328.604c0-0.869-1.2-1.381-3.165-1.381
				c-1.965,0-3.165,0.512-3.165,1.381s1.2,1.381,3.165,1.381C123.308,329.985,124.507,329.473,124.507,328.604z M127.552,321.225
				v1.02h-1.995v3.9h-1.23v-8.656h1.23v3.736H127.552L127.552,321.225z"/>
			<path fill="#6B6B6B" d="M147.817,323.895v1.02h-12.18v-1.02H147.817z M146.317,328.499c0,1.561-1.74,2.43-4.605,2.43
				c-2.865,0-4.604-0.869-4.604-2.43c0-1.559,1.74-2.43,4.604-2.43C144.577,326.069,146.317,326.94,146.317,328.499z
				 M146.393,322.604h-9.225v-4.574h9.135v0.99h-7.905v2.594h7.995V322.604L146.393,322.604z M145.072,328.499
				c0-0.945-1.245-1.469-3.36-1.469c-2.115,0-3.36,0.523-3.36,1.469s1.245,1.471,3.36,1.471
				C143.813,329.969,145.072,329.444,145.072,328.499z"/>
			<path fill="#6B6B6B" d="M164.978,326.159h-5.505v4.785h-1.23v-4.785h-5.43v-1.004h12.149L164.978,326.159z M153.532,323.055
				c2.34-0.346,4.665-1.891,4.665-3.66v-0.076h-4.245v-0.99h9.825v0.99h-4.215v0.076c0,1.77,2.325,3.314,4.695,3.66l-0.48,0.975
				c-2.085-0.359-4.08-1.484-4.89-3.076c-0.825,1.592-2.805,2.717-4.89,3.076L153.532,323.055z"/>
			<path fill="#6B6B6B" d="M178.792,324.374v0.99h-5.399v2.715h-1.23v-2.715h-5.595v-0.99H178.792z M169.357,329.639h8.07v1.004
				h-9.3v-3.84h1.23V329.639L169.357,329.639z M177.203,322.844h-9.044v-4.725h9.044V322.844z M175.987,319.11h-6.63v2.744h6.63
				V319.11z"/>
			<path fill="#6B6B6B" d="M185.107,321.059c0,2.445,1.53,4.891,3.48,5.82l-0.72,0.975c-1.53-0.766-2.76-2.369-3.375-4.26
				c-0.585,1.994-1.83,3.689-3.345,4.5l-0.75-0.975c1.95-0.975,3.48-3.57,3.48-6.061v-2.414h1.23V321.059L185.107,321.059z
				 M191.481,317.489v13.471h-1.23v-7.904h-3.12v-1.006h3.12v-4.561H191.481z"/>
			<path fill="#6B6B6B" d="M204.741,325.034c-1.5-0.525-2.655-1.619-3.24-3c-0.57,1.5-1.785,2.686-3.36,3.27l-0.645-0.975
				c2.025-0.705,3.375-2.443,3.375-4.363v-0.541h-3.015v-0.99h7.215v0.99h-2.97v0.525c0,1.785,1.29,3.449,3.27,4.125
				L204.741,325.034z M199.237,326.325h8.759v4.635h-1.23v-3.645h-7.529V326.325z M209.991,322.049h-1.995v3.555h-1.23v-8.1h1.23
				v3.525h1.995V322.049z"/>
			<path fill="#6B6B6B" d="M218.587,324.825c-1.47-0.555-2.61-1.621-3.195-3.016c-0.57,1.59-1.785,2.805-3.405,3.42l-0.645-1.004
				c2.07-0.736,3.405-2.535,3.405-4.59v-1.381h1.229v1.336c0,1.92,1.305,3.584,3.27,4.273L218.587,324.825z M222.473,328.393
				c0,1.605-1.71,2.535-4.47,2.535s-4.484-0.93-4.484-2.535c0-1.619,1.725-2.533,4.484-2.533
				C220.762,325.86,222.473,326.774,222.473,328.393z M221.256,328.393c0-0.988-1.229-1.574-3.255-1.574
				c-2.025,0-3.254,0.586-3.254,1.574c0,0.977,1.229,1.561,3.254,1.561C220.027,329.954,221.256,329.37,221.256,328.393z
				 M221.197,321.36h-2.925v-1.006h2.925v-2.85h1.245v7.949h-1.245V321.36z"/>
			<path fill="#6B6B6B" d="M112.837,344.793c-0.87,2.158-2.91,3.734-5.805,4.574l-0.495-0.975c3.21-0.961,5.205-2.746,5.43-5.07
				h-4.74v-0.99h6.075c0,0.496-0.06,0.99-0.15,1.455h3.045v-2.459h1.245v8.039h-1.245v-1.77h-3.525v-1.006h3.525v-1.799H112.837
				L112.837,344.793z M117.502,352.112c0,1.621-1.74,2.598-4.455,2.598s-4.455-0.977-4.455-2.598c0-1.619,1.74-2.594,4.455-2.594
				S117.502,350.493,117.502,352.112z M116.288,352.112c0-1.004-1.26-1.619-3.24-1.619s-3.24,0.615-3.24,1.619
				c0,1.021,1.26,1.635,3.24,1.635S116.288,353.131,116.288,352.112z"/>
			<path fill="#6B6B6B" d="M120.637,342.874h5.115v8.279h-5.115V342.874z M121.792,350.178h2.82v-6.33h-2.82V350.178z
				 M131.587,341.313v13.439h-1.17v-7.109h-1.815v6.449h-1.155v-12.48h1.155v5.025h1.815v-5.324H131.587L131.587,341.313z"/>
			<path fill="#6B6B6B" d="M142.087,344.897c0,2.461,1.605,4.938,3.6,5.836l-0.735,0.99c-1.53-0.75-2.82-2.34-3.465-4.26
				c-0.615,2.023-1.905,3.703-3.48,4.514l-0.75-1.004c1.98-0.945,3.615-3.525,3.615-6.076v-2.414h1.215V344.897L142.087,344.897z
				 M148.328,341.313v13.484h-1.23v-13.484H148.328z"/>
			<path fill="#6B6B6B" d="M158.302,348.858c-1.5-0.523-2.655-1.621-3.24-3c-0.57,1.5-1.785,2.686-3.36,3.271l-0.645-0.977
				c2.025-0.705,3.375-2.443,3.375-4.365v-0.537h-3.015v-0.99h7.215v0.99h-2.97v0.521c0,1.785,1.29,3.451,3.27,4.125
				L158.302,348.858z M152.797,350.147h8.759v4.635h-1.23v-3.645h-7.529V350.147z M163.552,345.872h-1.995v3.557h-1.23v-8.1h1.23
				v3.523h1.995V345.872z"/>
		</g>
		<g>
			<path fill="#6B6B6B" d="M663.465,302.68c1.936,0,3.931-0.164,6.104-0.6l0.15,1.02c-2.295,0.465-4.352,0.615-6.405,0.615h-1.065
				v-8.744h1.216V302.68z M674.221,300.055h-2.16v7.066h-1.23v-13.455h1.23v5.369h2.16V300.055z"/>
			<path fill="#6B6B6B" d="M682.245,301.09h-6.18v-6.225h6.18V301.09z M681.045,295.856h-3.779v4.26h3.779V295.856z
				 M678.811,305.815h7.739v1.006h-8.971v-4.229h1.23L678.811,305.815L678.811,305.815z M687.945,297.76v1.035h-1.996v4.711h-1.229
				v-9.855h1.229v4.109H687.945z"/>
			<path fill="#6B6B6B" d="M689.4,303.161c2.445,0,5.82-0.016,8.76-0.465l0.105,0.914c-3.03,0.57-6.285,0.586-8.715,0.586
				L689.4,303.161z M697.275,297.821c0,1.875-1.5,3.166-3.6,3.166c-2.086,0-3.601-1.291-3.601-3.166
				c0-1.891,1.515-3.164,3.601-3.164C695.775,294.657,697.275,295.93,697.275,297.821z M691.275,297.821
				c0,1.246,1.005,2.115,2.4,2.115c1.395,0,2.398-0.869,2.398-2.115c0-1.26-1.005-2.115-2.398-2.115
				C692.28,295.706,691.275,296.561,691.275,297.821z M700.275,293.667v13.484h-1.229v-13.484H700.275z"/>
			<path fill="#6B6B6B" d="M713.205,300.34h-6.18v-5.76h6.18V300.34z M713.385,303.131c0.149,1.41,2.085,2.67,4.274,3.014
				l-0.465,0.945c-1.95-0.33-3.676-1.305-4.439-2.654c-0.766,1.365-2.489,2.324-4.485,2.641l-0.449-0.943
				c2.22-0.33,4.125-1.563,4.275-3h-3.75v-0.99h8.789v0.99h-3.75V303.131z M712.005,295.557h-3.78v3.793h3.78V295.557z
				 M718.904,296.891v1.02h-1.994v3.438h-1.229v-7.68h1.229v3.225h1.994V296.891z"/>
			<path fill="#6B6B6B" d="M726.975,301.317v1.469h3.976v4.154h-9.18v-4.154h3.975v-1.469h-5.475v-1.006h12.165v1.006H726.975z
				 M720.976,298.586c2.534-0.225,4.604-1.215,4.71-2.686h-4.155v-0.975h4.215v-1.352h1.229v1.352h4.215v0.975h-4.169
				c0.104,1.471,2.175,2.461,4.71,2.686l-0.375,0.945c-2.221-0.227-4.186-1.006-4.995-2.311c-0.825,1.305-2.79,2.084-5.01,2.311
				L720.976,298.586z M729.75,303.76h-6.778v2.191h6.778V303.76z"/>
			<path fill="#6B6B6B" d="M741.63,296.141h-7.529v-0.99h3.21v-1.604h1.229v1.604h3.091V296.141L741.63,296.141z M737.91,301.827
				c-1.8,0-3.045-0.99-3.045-2.506c0-1.5,1.245-2.49,3.045-2.49c1.785,0,3.045,0.99,3.045,2.49
				C740.955,300.836,739.695,301.827,737.91,301.827z M737.91,300.881c1.125,0,1.892-0.615,1.892-1.561
				c0-0.93-0.767-1.545-1.892-1.545s-1.89,0.615-1.89,1.545C736.021,300.266,736.785,300.881,737.91,300.881z M745.215,304.811
				c0,1.455-1.695,2.295-4.471,2.295c-2.79,0-4.484-0.84-4.484-2.295c0-1.471,1.694-2.295,4.484-2.295
				C743.52,302.516,745.215,303.34,745.215,304.811z M743.939,304.811c0-0.871-1.215-1.35-3.194-1.35c-1.979,0-3.21,0.479-3.21,1.35
				c0,0.855,1.23,1.35,3.21,1.35C742.726,306.161,743.939,305.667,743.939,304.811z M743.91,297.897h-2.266v-0.99h2.266v-3.238
				h1.244v8.684h-1.244v-1.83h-2.279v-1.004h2.279V297.897z"/>
			<path fill="#6B6B6B" d="M669.18,317.834h1.154v12.42h-1.154v-6.449h-2.489c-0.75,1.648-2.056,3.148-4.2,4.35l-0.705-0.885
				c2.056-1.111,3.285-2.52,3.945-4.096l-3.779,0.375l-0.166-1.051l4.275-0.285c0.195-0.703,0.3-1.408,0.345-2.145h-3.96v-0.99
				h5.146c0,1.262-0.149,2.535-0.524,3.721h2.114L669.18,317.834L669.18,317.834z M673.141,317.475v13.453h-1.17v-13.453H673.141z"
				/>
			<path fill="#6B6B6B" d="M682.846,323.219c0,2.865-1.426,4.695-3.42,4.695c-1.996,0-3.42-1.83-3.42-4.695s1.424-4.695,3.42-4.695
				C681.42,318.524,682.846,320.354,682.846,323.219z M677.176,323.219c0,2.189,0.93,3.6,2.25,3.6c1.305,0,2.233-1.41,2.233-3.6
				c0-2.176-0.93-3.584-2.233-3.584C678.105,319.635,677.176,321.043,677.176,323.219z M686.52,317.489v13.484h-1.229v-13.484
				H686.52z"/>
			<path fill="#6B6B6B" d="M691.155,326.713c2.432,0,3.99-0.09,5.819-0.42l0.136,1.006c-1.95,0.346-3.585,0.42-6.149,0.42h-1.034
				v-9.016h6.225v1.021h-4.995v2.771h4.41v0.99h-4.41L691.155,326.713L691.155,326.713z M700.395,317.475v13.484h-1.229v-7.381
				h-2.773v-1.02h2.773v-5.084H700.395L700.395,317.475z"/>
			<path fill="#6B6B6B" d="M711.42,324.508c-2.205,0.361-4.035,0.436-6.524,0.436h-1.08v-3.84h4.86v-1.77h-4.905v-1.006h6.12v3.721
				h-4.875v1.891c2.385,0,4.14-0.076,6.27-0.42L711.42,324.508z M714.225,328.485c0,1.561-1.726,2.443-4.529,2.443
				c-2.79,0-4.5-0.885-4.5-2.443c0-1.545,1.71-2.432,4.5-2.432C712.5,326.053,714.225,326.94,714.225,328.485z M712.995,328.485
				c0-0.916-1.229-1.455-3.3-1.455c-2.04,0-3.27,0.539-3.27,1.455c0,0.93,1.229,1.469,3.27,1.469
				C711.766,329.954,712.995,329.415,712.995,328.485z M714.15,325.77h-1.229v-8.281h1.229V325.77z"/>
			<path fill="#6B6B6B" d="M728.715,325.245c-2.806,0.51-6,0.555-8.295,0.555l-0.164-1.006c1.034,0,2.25-0.014,3.493-0.059v-1.352
				c-1.635-0.193-2.715-1.186-2.715-2.623c0-1.576,1.351-2.643,3.315-2.643c1.95,0,3.313,1.064,3.313,2.643
				c0,1.424-1.079,2.414-2.685,2.607v1.32c1.244-0.076,2.49-0.166,3.645-0.346L728.715,325.245z M724.351,322.469
				c1.26,0,2.159-0.676,2.159-1.709c0-1.021-0.899-1.711-2.159-1.711c-1.29,0-2.175,0.689-2.175,1.711
				C722.176,321.793,723.061,322.469,724.351,322.469z M723.42,329.624h7.756v1.006h-8.985v-3.705h1.229V329.624z M732.675,322.049
				v1.02h-1.979v4.727h-1.229v-10.291h1.229v4.545H732.675L732.675,322.049z"/>
			<path fill="#6B6B6B" d="M741.301,324.825c-1.472-0.555-2.611-1.621-3.195-3.016c-0.57,1.59-1.785,2.805-3.405,3.42l-0.646-1.004
				c2.069-0.736,3.405-2.535,3.405-4.59v-1.381h1.229v1.336c0,1.92,1.306,3.584,3.271,4.273L741.301,324.825z M745.186,328.393
				c0,1.605-1.711,2.535-4.471,2.535c-2.761,0-4.484-0.93-4.484-2.535c0-1.619,1.725-2.533,4.484-2.533
				C743.474,325.86,745.186,326.774,745.186,328.393z M743.97,328.393c0-0.988-1.229-1.574-3.255-1.574
				c-2.026,0-3.255,0.586-3.255,1.574c0,0.977,1.229,1.561,3.255,1.561C742.739,329.954,743.97,329.37,743.97,328.393z
				 M743.91,321.36h-2.926v-1.006h2.926v-2.85h1.244v7.949h-1.244V321.36z"/>
		</g>
		<g>
			<g>
				<path fill="#8E8E8E" d="M231.704,8.6h-5.169v4.492h-1.155V8.6h-5.098V7.656h11.408L231.704,8.6z M220.958,5.684
					c2.197-0.322,4.38-1.773,4.38-3.437v-0.07h-3.985v-0.93h9.225v0.93h-3.958v0.07c0,1.662,2.183,3.113,4.408,3.437L230.577,6.6
					c-1.958-0.338-3.831-1.395-4.591-2.888c-0.774,1.493-2.633,2.55-4.591,2.888L220.958,5.684z"/>
				<path fill="#8E8E8E" d="M244.676,6.924v0.931h-5.07v2.55h-1.155v-2.55h-5.253V6.924H244.676z M235.817,11.868h7.577v0.943
					h-8.732V9.206h1.155V11.868z M243.184,5.487h-8.493V1.051h8.493V5.487z M242.042,1.98h-6.225v2.577h6.225V1.98z"/>
				<path fill="#8E8E8E" d="M250.607,3.812c0,2.296,1.437,4.592,3.267,5.465l-0.676,0.915c-1.437-0.719-2.591-2.226-3.169-4
					c-0.549,1.874-1.718,3.465-3.141,4.226l-0.704-0.915c1.831-0.916,3.267-3.353,3.267-5.689V1.544h1.155L250.607,3.812
					L250.607,3.812z M256.593,0.46v12.647h-1.155V5.684h-2.929V4.741h2.929V0.46H256.593z"/>
				<path fill="#8E8E8E" d="M266.553,4.318c0,2.015,1.437,4.254,3.267,5.112l-0.662,0.93c-1.409-0.704-2.592-2.184-3.169-3.873
					c-0.578,1.846-1.803,3.451-3.225,4.184l-0.676-0.916c1.803-0.9,3.324-3.295,3.324-5.437V2.713h-2.887V1.756h6.831v0.957h-2.802
					v1.605H266.553z M274.103,6.53h-2.084v6.563h-1.155V0.473h1.155v5.085h2.084V6.53z"/>
				<path fill="#8E8E8E" d="M286.695,6.699v0.93h-11.436v-0.93h5.141V5.234h-3.704V1.037h8.577v0.93h-7.422v2.338h7.507v0.931
					h-3.803V6.7L286.695,6.699L286.695,6.699z M285.287,10.812c0,1.465-1.633,2.28-4.31,2.28c-2.704,0-4.338-0.815-4.338-2.28
					c0-1.466,1.634-2.281,4.338-2.281C283.653,8.53,285.287,9.346,285.287,10.812z M284.117,10.812c0-0.889-1.169-1.381-3.141-1.381
					c-2,0-3.169,0.492-3.169,1.381c0,0.887,1.169,1.38,3.169,1.38C282.948,12.191,284.117,11.698,284.117,10.812z"/>
				<path fill="#8E8E8E" d="M298.247,7.248c-1.408-0.521-2.493-1.563-3.056-2.859c-0.535,1.451-1.69,2.593-3.168,3.155l-0.606-0.915
					c1.873-0.662,3.183-2.338,3.183-4.141V2.164h-2.817V1.22h6.746v0.943h-2.774v0.324c0,1.619,1.239,3.195,3.07,3.845
					L298.247,7.248z M300.626,7.938h1.142v4.984h-8.084V7.938h1.141v1.549h5.803L300.626,7.938L300.626,7.938z M300.626,10.388
					h-5.803v1.593h5.803V10.388z M301.768,0.473v6.846h-1.155V4.473h-2.493V3.53h2.493V0.473H301.768z"/>
				<path fill="#8E8E8E" d="M315.77,8.53h-5.169v4.577h-1.155V8.53h-5.098V7.572h11.408L315.77,8.53z M314.727,6.206
					c-1.958-0.338-3.859-1.437-4.676-2.958c-0.789,1.535-2.69,2.62-4.662,2.958l-0.465-0.93c2.296-0.338,4.521-1.859,4.521-3.662
					V0.91h1.211v0.704c0,1.761,2.253,3.324,4.549,3.662L314.727,6.206z"/>
				<path fill="#8E8E8E" d="M151.356,32.86h-5.141v4.069h-1.155V32.86h-5.126v-0.944h11.422V32.86L151.356,32.86z M140.639,30.029
					c2.281-0.311,4.408-1.69,4.408-3.254h-4.014v-0.93h4.028v-1.55h1.155v1.55h4.028v0.93h-4.028c0,1.55,2.141,2.943,4.394,3.254
					l-0.408,0.93c-1.958-0.296-3.761-1.268-4.563-2.634c-0.803,1.366-2.62,2.338-4.577,2.634L140.639,30.029z"/>
				<path fill="#8E8E8E" d="M159.78,31.944c-1.451-0.479-2.577-1.479-3.155-2.761c-0.535,1.395-1.662,2.465-3.141,2.985
					l-0.578-0.901c1.874-0.634,3.127-2.211,3.127-3.972v-0.395h-2.803v-0.931h2.803v-1.604h1.155v1.604h2.789v0.931h-2.789v0.395
					c0,1.676,1.282,3.142,3.155,3.732L159.78,31.944z M163.64,35.691v0.942h-8.436v-3.761h1.169v2.817L163.64,35.691L163.64,35.691z
					 M162.119,28.17v-3.873h1.169v9.422h-1.169v-4.591h-2.549V28.17H162.119z"/>
				<path fill="#8E8E8E" d="M174.091,31.676c-2.676,0.381-5.676,0.465-8.028,0.465l-0.169-0.942c1.099,0,2.324-0.015,3.563-0.058
					v-1.787h-2.437v-4.255h6.014v0.944h-4.859v2.38h4.943v0.931h-2.507v1.745c1.169-0.057,2.31-0.127,3.394-0.254L174.091,31.676z
					 M176.599,35.691v0.942h-8.591v-3.521h1.155v2.578H176.599z M176.175,33.733h-1.155v-9.45h1.155V33.733z"/>
				<path fill="#8E8E8E" d="M187.389,30.663h-4.873v-5.465h4.873v2.184h1.718v-2.831h1.084v6.915h-1.084v-3.141h-1.718V30.663z
					 M186.318,26.086h-2.718v3.704h2.718V26.086z M184.318,32.24h8.295v4.507h-8.295V32.24z M185.445,35.817h6.042v-2.661h-6.042
					V35.817z M192.613,24.297v7.311h-1.098v-7.311H192.613z"/>
				<path fill="#8E8E8E" d="M205.319,24.283v12.661h-1.155v-7.042h-2.958v3.845h-5.789v-8.464h1.141v3.281h3.521v-3.281h1.127v3.688
					h2.958v-4.688H205.319z M200.081,29.479h-3.521v3.323h3.521V29.479z"/>
				<path fill="#8E8E8E" d="M219.321,34.268v0.958h-11.45v-0.958H219.321z M218.237,31.593c-1.916-0.437-3.887-1.789-4.69-3.647
					c-0.803,1.846-2.774,3.196-4.676,3.647l-0.521-0.958c2.211-0.437,4.591-2.338,4.591-4.493V25.17h1.211v0.972
					c0,2.155,2.394,4.07,4.605,4.493L218.237,31.593z"/>
				<path fill="#8E8E8E" d="M232.267,29.551v0.943h-11.436v-0.943H232.267z M223.365,35.86h7.802v0.9h-8.929v-3.056h7.408v-1.211
					h-7.45v-0.901h8.591v2.973h-7.422V35.86L223.365,35.86z M230.9,28.536h-8.549v-3.831h8.422v0.93h-7.267v1.973h7.394V28.536z"/>
				<path fill="#8E8E8E" d="M240.917,24.564h1.098v11.731h-1.098v-6.155h-1.592c-0.099,2.479-1.126,4-2.676,4
					c-1.648,0-2.704-1.689-2.704-4.422c0-2.689,1.056-4.381,2.704-4.381c1.521,0,2.535,1.479,2.676,3.859h1.592V24.564z
					 M238.282,29.719c0-2.027-0.648-3.31-1.634-3.31c-1.014,0-1.648,1.281-1.648,3.31c0,2.07,0.634,3.353,1.648,3.353
					C237.634,33.071,238.282,31.79,238.282,29.719z M244.521,24.283v12.633h-1.099V24.283H244.521z"/>
				<path fill="#8E8E8E" d="M253.749,24.621h1.099v11.661h-1.099v-5.901h-2.591c-0.761,1.465-1.972,2.775-3.718,3.817l-0.676-0.831
					c2.704-1.62,4.056-3.888,4.267-6.535h-3.732v-0.943h4.873c0,1.239-0.183,2.438-0.606,3.563h2.183V24.621z M257.481,24.283
					v12.633h-1.099V24.283H257.481z"/>
				<path fill="#8E8E8E" d="M269.99,24.564h1.098v11.718h-1.098v-6.281h-1.874v3.521h-4.802v-7.774h4.802v3.295h1.874V24.564z
					 M267.046,26.663h-2.647v5.943h2.647V26.663z M273.595,24.283v12.619h-1.099V24.283H273.595z"/>
				<path fill="#8E8E8E" d="M279.568,27.846c0,2.027,0.944,4.168,2.605,5.184l-0.662,0.9c-1.197-0.731-2.042-2.069-2.493-3.604
					c-0.451,1.676-1.366,3.112-2.62,3.887l-0.718-0.873c1.732-1.014,2.774-3.281,2.774-5.45v-2.407h1.113L279.568,27.846
					L279.568,27.846z M282.893,24.564h1.084v11.731h-1.084v-6.521h-2.084v-0.957h2.084V24.564z M286.555,24.283v12.633h-1.099
					V24.283H286.555z"/>
				<path fill="#8E8E8E" d="M293.289,28.141c0,2.143,1.521,4.324,3.38,5.113l-0.648,0.929c-1.464-0.676-2.704-2.126-3.31-3.857
					c-0.577,1.845-1.817,3.437-3.253,4.169l-0.676-0.93c1.817-0.859,3.352-3.239,3.352-5.424v-1.604h-2.93v-0.957h7.056v0.957
					h-2.972L293.289,28.141L293.289,28.141z M299.119,24.297v12.619h-1.155V24.297H299.119z"/>
				<path fill="#8E8E8E" d="M311.77,31.648c-1.408-0.508-2.493-1.563-3.042-2.858c-0.549,1.437-1.704,2.605-3.183,3.141l-0.606-0.9
					c1.873-0.676,3.183-2.354,3.183-4.142v-0.634h-2.816v-0.942h6.746v0.942h-2.774v0.619c0,1.648,1.239,3.226,3.07,3.873
					L311.77,31.648z M315.656,35.691v0.942h-8.436v-3.9h1.169v2.958H315.656z M314.136,27.775v-3.479h1.169v9.253h-1.169v-4.83
					h-2.535v-0.943H314.136z"/>
				<path fill="#8E8E8E" d="M325.307,29.719c-1.774,0.366-3.311,0.45-5.915,0.45h-0.972v-5.154h5.577v0.931h-4.437v3.295
					c2.451,0,3.915-0.1,5.604-0.438L325.307,29.719z M320.8,35.817h7.323v0.93h-8.449v-3.225h6.845v-1.324h-6.887v-0.916h8.027
					v3.113h-6.858L320.8,35.817L320.8,35.817z M329.531,26.945v0.942h-1.873v2.746h-1.154v-6.352h1.154v2.662L329.531,26.945
					L329.531,26.945z"/>
				<path fill="#8E8E8E" d="M337.604,24.705h0.93l-4.211,13.69h-0.943L337.604,24.705z"/>
				<path fill="#8E8E8E" d="M348.731,27.551c-0.817,2.027-2.732,3.507-5.45,4.295l-0.465-0.915c3.014-0.9,4.887-2.576,5.098-4.761
					h-4.449v-0.93h5.703c0,0.465-0.056,0.93-0.141,1.366h2.859v-2.311h1.169v7.549h-1.169v-1.661h-3.311V29.24h3.311v-1.689H348.731
					z M353.111,34.424c0,1.521-1.634,2.438-4.183,2.438s-4.184-0.916-4.184-2.438c0-1.521,1.635-2.437,4.184-2.437
					S353.111,32.902,353.111,34.424z M351.971,34.424c0-0.943-1.184-1.521-3.042-1.521c-1.859,0-3.042,0.577-3.042,1.521
					c0,0.957,1.183,1.535,3.042,1.535C350.787,35.959,351.971,35.381,351.971,34.424z"/>
				<path fill="#8E8E8E" d="M356.058,25.748h4.802v7.774h-4.802V25.748z M357.142,32.606h2.646v-5.943h-2.646V32.606z
					 M366.339,24.283v12.619h-1.1v-6.677h-1.704v6.057h-1.084V24.564h1.084v4.719h1.704v-5H366.339z"/>
				<path fill="#8E8E8E" d="M378.565,31.268c-1.437-0.449-2.535-1.38-3.099-2.576c-0.55,1.323-1.69,2.338-3.184,2.815l-0.563-0.9
					c1.873-0.577,3.154-2.042,3.154-3.719v-0.196h-2.803v-0.931h2.803v-1.535h1.155v1.535h2.789v0.931h-2.789v0.196
					c0,1.535,1.226,2.931,3.084,3.492L378.565,31.268z M373.595,32.354h7.929v4.394h-7.929V32.354z M374.721,35.817h5.662v-2.55
					h-5.662V35.817z M383.396,28.438h-1.873v3.323h-1.155v-7.479h1.155v3.197h1.873V28.438z"/>
				<path fill="#8E8E8E" d="M395.088,24.283v12.661h-1.155v-4.901h-3.155c-0.521,1.282-1.507,2.028-2.718,2.028
					c-1.845,0-3.155-1.718-3.155-4.408s1.311-4.408,3.155-4.408c1.169,0,2.099,0.676,2.634,1.859h3.239v-2.831H395.088z
					 M390.116,29.663c0-2.042-0.858-3.366-2.056-3.366c-1.211,0-2.056,1.324-2.056,3.366c0,2.057,0.845,3.38,2.056,3.38
					C389.258,33.043,390.116,31.719,390.116,29.663z M393.934,31.099v-3.042h-2.916c0.113,0.493,0.183,1.028,0.183,1.605
					c0,0.521-0.056,1-0.141,1.437H393.934z"/>
			</g>
		</g>
		<g>
			<g>
				<path fill="#8E8E8E" d="M495.609,4.023c0,2.026,0.943,4.168,2.605,5.183l-0.662,0.901c-1.197-0.732-2.043-2.07-2.493-3.605
					c-0.45,1.676-1.366,3.112-2.62,3.887l-0.718-0.873c1.731-1.014,2.773-3.28,2.773-5.449V1.657h1.113L495.609,4.023L495.609,4.023
					z M498.933,0.741h1.085v11.731h-1.085V5.952h-2.085V4.995h2.085V0.741z M502.595,0.46v12.633h-1.1V0.46H502.595z"/>
				<path fill="#8E8E8E" d="M516.271,8.882h-5.183v4.227h-1.155V8.882h-5.126v-0.93h11.464V8.882z M514.821,6.431h-8.563V0.967
					h1.141v1.732h6.268V0.967h1.155L514.821,6.431L514.821,6.431z M513.666,3.629h-6.268v1.858h6.268V3.629z"/>
				<path fill="#8E8E8E" d="M522.021,3.826c0,2.225,1.437,4.521,3.211,5.408l-0.718,0.915c-1.338-0.719-2.479-2.197-3.058-3.931
					c-0.549,1.847-1.719,3.423-3.141,4.185l-0.69-0.931c1.817-0.93,3.254-3.353,3.254-5.646V1.558h1.142V3.826z M529.584,6.544
					h-2.085v6.549h-1.154V0.473h1.154v5.112h2.085V6.544z"/>
				<path fill="#8E8E8E" d="M538.233,2.812h-7.45V1.881h3.142V0.346h1.153v1.535h3.155V2.812z M534.502,7.91
					c-1.804,0-3.016-0.873-3.016-2.239c0-1.353,1.212-2.226,3.016-2.226c1.803,0,3.027,0.873,3.027,2.226
					C537.529,7.037,536.304,7.91,534.502,7.91z M540.697,10.896c0,1.381-1.576,2.184-4.111,2.184c-2.55,0-4.112-0.803-4.112-2.184
					c0-1.395,1.563-2.184,4.112-2.184C539.121,8.713,540.697,9.502,540.697,10.896z M534.502,7.037c1.154,0,1.93-0.535,1.93-1.366
					c0-0.816-0.774-1.353-1.93-1.353c-1.142,0-1.915,0.535-1.915,1.353C532.586,6.502,533.36,7.037,534.502,7.037z M539.557,10.896
					c0-0.816-1.127-1.296-2.971-1.296c-1.847,0-2.974,0.479-2.974,1.296s1.127,1.296,2.974,1.296
					C538.43,12.191,539.557,11.713,539.557,10.896z M542.416,3.967v0.958h-1.873v3.661h-1.153V0.46h1.153v3.507H542.416z"/>
				<path fill="#8E8E8E" d="M553.418,6.445h-5.9V1.276h5.9V6.445z M553.799,9.459c0.014,1.212,1.984,2.438,4.153,2.704l-0.395,0.888
					c-1.901-0.268-3.592-1.141-4.338-2.31c-0.761,1.197-2.507,2.042-4.408,2.31l-0.381-0.888c2.155-0.253,4.17-1.45,4.184-2.704
					h-3.688V8.572h3.703V7.346h1.17v1.227h3.702v0.887H553.799z M552.291,2.192h-3.646v3.322h3.646V2.192z M557.207,7.713h-1.154
					V0.46h1.154V7.713z"/>
				<path fill="#8E8E8E" d="M574.405,9.037h-5.141v4.07h-1.155v-4.07h-5.126V8.093h11.422V9.037z M563.688,6.206
					c2.281-0.31,4.408-1.69,4.408-3.254h-4.015V2.023h4.027V0.473h1.155v1.551h4.027v0.929h-4.027c0,1.55,2.141,2.944,4.394,3.254
					l-0.408,0.93c-1.956-0.296-3.76-1.268-4.563-2.634c-0.803,1.366-2.62,2.338-4.578,2.634L563.688,6.206z"/>
				<path fill="#8E8E8E" d="M582.379,1.812c0,3.592-1.648,6.845-5.732,8.888l-0.633-0.902c3.225-1.619,4.957-4.042,5.225-7.026
					h-4.634V1.812H582.379z M587.674,6.544h-2.027v6.549h-1.154V0.46h1.154v5.126h2.027V6.544z"/>
				<path fill="#8E8E8E" d="M600.353,10.515v0.958h-11.479v-0.958h2.817V7.107c-1.057-0.551-1.691-1.466-1.691-2.605
					c0-1.972,1.916-3.239,4.593-3.239c2.689,0,4.592,1.269,4.592,3.239c0,1.141-0.62,2.042-1.662,2.592v3.422L600.353,10.515
					L600.353,10.515z M591.113,4.502c0,1.408,1.451,2.338,3.479,2.338c2.027,0,3.493-0.93,3.493-2.338s-1.466-2.338-3.493-2.338
					C592.564,2.164,591.113,3.093,591.113,4.502z M592.846,10.515h3.521V7.544c-0.535,0.127-1.142,0.197-1.774,0.197
					c-0.619,0-1.226-0.07-1.746-0.197V10.515z"/>
				<path fill="#8E8E8E" d="M608.791,7.586c-1.45-0.45-2.604-1.395-3.184-2.619c-0.535,1.38-1.676,2.45-3.169,2.943l-0.563-0.888
					c1.859-0.635,3.127-2.169,3.127-3.873V2.91h-2.803V1.98h2.803V0.403h1.154V1.98h2.789v0.93h-2.789v0.239
					c0,1.577,1.312,2.985,3.17,3.55L608.791,7.586z M612.297,10.755c0,1.479-1.605,2.324-4.226,2.324
					c-2.592,0-4.197-0.846-4.197-2.324c0-1.465,1.605-2.31,4.197-2.31C610.691,8.445,612.297,9.29,612.297,10.755z M611.143,10.755
					c0-0.873-1.141-1.408-3.07-1.408c-1.9,0-3.043,0.535-3.043,1.408c0,0.888,1.143,1.423,3.043,1.423
					C610.002,12.177,611.143,11.642,611.143,10.755z M611.086,4.051V0.46h1.17v7.661h-1.17V5.009h-2.521V4.051H611.086z"/>
				<path fill="#8E8E8E" d="M629.397,6.473v0.958h-11.437V6.473H629.397z M627.988,10.797c0,1.465-1.633,2.282-4.323,2.282
					c-2.689,0-4.322-0.817-4.322-2.282c0-1.464,1.633-2.281,4.322-2.281C626.355,8.516,627.988,9.333,627.988,10.797z M628.06,5.262
					h-8.661V0.967h8.576v0.931h-7.422v2.437h7.507V5.262z M626.82,10.797c0-0.887-1.17-1.38-3.155-1.38
					c-1.984,0-3.154,0.493-3.154,1.38c0,0.888,1.17,1.381,3.154,1.381C625.637,12.177,626.82,11.684,626.82,10.797z"/>
				<path fill="#8E8E8E" d="M529.515,28.17c0,2.015,1.015,4.1,2.718,5.014l-0.662,0.874c-1.225-0.689-2.126-1.972-2.591-3.492
					c-0.437,1.604-1.323,3.014-2.563,3.761l-0.676-0.859c1.704-1.015,2.676-3.226,2.676-5.296v-0.604h-2.338v-0.958h2.338v-1.873
					h1.113v1.873h2.323v0.958h-2.338V28.17z M532.923,24.579h1.099v11.675h-1.099v-6.027h-1.93V29.27h1.93V24.579z M536.57,24.283
					v12.619h-1.112V24.283H536.57z"/>
				<path fill="#8E8E8E" d="M550.234,34.212v0.943h-11.422v-0.943H550.234z M547.67,29.071c0.028-0.662,0.028-1.311,0.028-1.957
					v-0.606h-7.535v-0.942h8.662v1.55c0,1.873,0,3.577-0.549,6.168l-1.127-0.112c0.268-1.211,0.408-2.254,0.479-3.226l-7.619,0.423
					l-0.17-0.958L547.67,29.071z"/>
				<path fill="#8E8E8E" d="M566.363,33.424h-5.155v3.507h-1.169v-3.507h-5.127V32.48h11.451V33.424L566.363,33.424z
					 M565.658,26.663h-10.154v-0.93h4.534v-1.521h1.169v1.521h4.45L565.658,26.663L565.658,26.663z M560.631,27.382
					c2.549,0,4.084,0.76,4.084,2.112c0,1.352-1.535,2.099-4.084,2.099c-2.578,0-4.113-0.747-4.113-2.099
					C556.518,28.141,558.053,27.382,560.631,27.382z M560.631,28.268c-1.847,0-2.916,0.451-2.916,1.227s1.069,1.226,2.916,1.226
					c1.845,0,2.887-0.45,2.887-1.226S562.476,28.268,560.631,28.268z"/>
				<path fill="#8E8E8E" d="M577.688,25.649c0,3.646-1.677,6.857-5.873,8.915l-0.62-0.943c3.396-1.62,5.084-4.043,5.324-7.042
					h-4.746v-0.93H577.688z M581.393,24.283v12.633h-1.154V24.283H581.393z"/>
				<path fill="#8E8E8E" d="M592.239,31.86c-2.746,0.449-5.761,0.493-8.028,0.493l-0.168-0.916c1.057,0,2.281,0,3.535-0.042v-0.873
					c-1.479-0.155-2.408-0.847-2.408-1.859c0-1.155,1.196-1.888,2.984-1.888c1.817,0,3.015,0.731,3.015,1.888
					c0,1.028-0.942,1.718-2.437,1.859v0.815c1.169-0.057,2.338-0.141,3.437-0.296L592.239,31.86z M591.859,26.312h-7.395v-0.874
					h3.112v-1.226h1.154v1.226h3.127L591.859,26.312L591.859,26.312z M585.859,33.339h8.465v3.577h-1.154v-2.662h-7.311V33.339z
					 M588.154,29.733c1.17,0,1.916-0.424,1.916-1.07c0-0.662-0.746-1.07-1.916-1.07c-1.141,0-1.9,0.408-1.9,1.07
					C586.254,29.31,587.014,29.733,588.154,29.733z M594.324,24.312v8.436h-1.154v-8.436H594.324z"/>
			</g>
		</g>
		<circle fill="#FFFFFF" cx="133.172" cy="111.754" r="12.143"/>
		
			<path fill="none" stroke="#FFD45C" stroke-width="2.4858" stroke-linecap="round" stroke-linejoin="round" stroke-miterlimit="10" d="
			M121.03,111.754c0-5.38,5.436-9.742,12.142-9.742c6.707,0,12.144,4.362,12.144,9.742"/>
		<g>
			<circle fill="#FFFFFF" cx="415.249" cy="111.754" r="12.144"/>
			
				<path fill="none" stroke="#FFD45C" stroke-width="2.4858" stroke-linecap="round" stroke-linejoin="round" stroke-miterlimit="10" d="
				M403.105,111.754c0-5.38,5.437-9.742,12.144-9.742c6.706,0,12.145,4.362,12.145,9.742"/>
		</g>
		<circle fill="#FFFFFF" cx="703.995" cy="111.754" r="12.144"/>
		
			<path fill="none" stroke="#FFD45C" stroke-width="2.4858" stroke-linecap="round" stroke-linejoin="round" stroke-miterlimit="10" d="
			M691.852,111.754c0-5.38,5.438-9.742,12.145-9.742c6.705,0,12.144,4.362,12.144,9.742"/>
		<g>
			
				<path fill="none" stroke="#FFFFFF" stroke-width="1.452" stroke-linecap="round" stroke-linejoin="round" stroke-miterlimit="10" d="
				M140.996,217.331l-3.075,3.074l5.776,5.777l3.075-3.074c0.293-0.295,0.293-0.768,0-1.061l-4.717-4.719
				C141.761,217.038,141.289,217.038,140.996,217.331z"/>
			
				<polygon fill="none" stroke="#FFFFFF" stroke-width="1.452" stroke-linecap="round" stroke-linejoin="round" stroke-miterlimit="10" points="
				119.478,241.743 119.353,244.764 122.375,244.641 125.396,244.516 125.378,244.5 141.844,228.032 136.068,222.254 
				119.601,238.721 			"/>
		</g>
		
			<line fill="none" stroke="#FFFFFF" stroke-width="1.452" stroke-linecap="round" stroke-linejoin="round" stroke-miterlimit="10" x1="130.04" y1="244.764" x2="146.991" y2="244.764"/>
		
			<line fill="none" stroke="#FFFFFF" stroke-width="1.452" stroke-linecap="round" stroke-linejoin="round" stroke-miterlimit="10" x1="119.601" y1="238.581" x2="125.396" y2="244.374"/>
		<g>
			<g>
				
					<line fill="none" stroke="#FFD45C" stroke-width="2.4712" stroke-linecap="round" stroke-linejoin="round" x1="269.053" y1="57.746" x2="269.053" y2="59.805"/>
				
					<line fill="none" stroke="#FFD45C" stroke-width="2.4712" stroke-linecap="round" stroke-linejoin="round" stroke-dasharray="3.715,5.9441" x1="269.053" y1="65.749" x2="269.053" y2="91.755"/>
				
					<line fill="none" stroke="#FFD45C" stroke-width="2.4712" stroke-linecap="round" stroke-linejoin="round" x1="269.053" y1="94.727" x2="269.053" y2="96.786"/>
			</g>
		</g>
		<g>
			<g>
				
					<line fill="none" stroke="#FFD45C" stroke-width="2.4712" stroke-linecap="round" stroke-linejoin="round" x1="560.645" y1="57.746" x2="560.645" y2="59.805"/>
				
					<line fill="none" stroke="#FFD45C" stroke-width="2.4712" stroke-linecap="round" stroke-linejoin="round" stroke-dasharray="3.715,5.9441" x1="560.645" y1="65.749" x2="560.645" y2="91.755"/>
				
					<line fill="none" stroke="#FFD45C" stroke-width="2.4712" stroke-linecap="round" stroke-linejoin="round" x1="560.645" y1="94.727" x2="560.645" y2="96.786"/>
			</g>
		</g>
		<g>
			<g>
				<path fill="#4F4F4F" d="M111.222,177.271l0.62-2.055c1.098,0.395,2.348,0.442,3.315,0.032c1.146-0.486,1.547-1.236,1.218-2.011
					c-0.347-0.818-1.124-0.786-2.283-0.786l-1.738,0.001c-1.312,0.012-2.807-0.406-3.489-2.014
					c-0.764-1.801,0.225-3.854,2.457-4.802c1.28-0.543,2.774-0.581,4.052-0.052l-0.528,1.857c-0.945-0.284-1.813-0.303-2.721,0.084
					c-0.967,0.41-1.409,1.106-1.099,1.836c0.335,0.789,1.244,0.735,2.339,0.711l1.702-0.003c1.572-0.02,2.811,0.457,3.486,2.049
					c0.764,1.8-0.087,3.971-2.632,5.051C114.447,177.797,112.729,177.843,111.222,177.271z"/>
				<path fill="#4F4F4F" d="M121.147,164.66l-3.272,0.766l-0.453-1.936l8.904-2.081l0.453,1.935l-3.304,0.772l2.269,9.706
					l-2.328,0.545L121.147,164.66z"/>
				<path fill="#4F4F4F" d="M130.082,161l7.336-0.243l0.065,1.988l-4.944,0.163l0.091,2.763l4.201-0.139l0.066,2.004l-4.202,0.139
					l0.106,3.199l5.123-0.169l0.066,2.004l-7.514,0.248L130.082,161z"/>
				<path fill="#4F4F4F" d="M141.986,161.093l3.86,0.716c2.605,0.482,4.438,1.76,3.923,4.539c-0.498,2.686-2.739,3.519-5.264,3.05
					l-1.573-0.291l-0.774,4.178l-2.351-0.438L141.986,161.093z M144.691,167.509c1.62,0.301,2.525-0.237,2.775-1.588
					c0.253-1.366-0.519-1.985-2.139-2.286l-1.334-0.248l-0.715,3.86L144.691,167.509z"/>
				<path fill="#4F4F4F" d="M150.395,173.205l2.373,0.987l2.906-6.983l-2-0.833l0.565-1.356c1.191,0.25,2.07,0.282,2.952,0.143
					l1.626,0.677l-3.856,9.269l2.074,0.862l-0.739,1.775l-6.641-2.764L150.395,173.205z"/>
			</g>
		</g>
		<g>
			<path fill="#6B6B6B" d="M359.479,301.497c-1.485-0.586-2.64-1.74-3.21-3.195c-0.57,1.605-1.771,2.879-3.345,3.51l-0.646-0.975
				c2.01-0.736,3.36-2.641,3.36-4.695v-1.664h1.229v1.709c0,1.875,1.32,3.645,3.255,4.365L359.479,301.497z M363.663,305.815v1.006
				h-8.969v-4.199h1.229v3.193H363.663z M362.104,297.85h-2.94v-1.02h2.94v-3.148h1.245v10.049h-1.245V297.85z"/>
			<path fill="#6B6B6B" d="M372.799,300.161h-6.061v-5.865h1.215v1.92h3.63v-1.904h1.216v1.275h3.104v-1.904h1.23v7.02h-1.23v-1.711
				h-3.104V300.161z M371.583,297.176h-3.63v1.994h3.63V297.176z M377.644,305.965v0.975h-9.149v-3.33h7.424v-1.289h-7.454v-0.975
				h8.67v3.195h-7.425v1.424H377.644L377.644,305.965z M372.799,296.545v1.486h3.104v-1.486H372.799z"/>
			<path fill="#6B6B6B" d="M388.653,301.542c-2.85,0.404-6.044,0.494-8.549,0.494l-0.18-1.004c1.17,0,2.475-0.016,3.795-0.061
				v-1.904h-2.597v-4.531h6.405v1.006h-5.175v2.535h5.265v0.99h-2.67v1.859c1.245-0.063,2.46-0.137,3.615-0.271L388.653,301.542z
				 M391.323,305.815v1.006h-9.148v-3.75h1.229v2.744H391.323z M390.873,303.731h-1.229v-10.063h1.229V303.731z"/>
			<path fill="#6B6B6B" d="M402.813,300.461h-5.19v-5.82h5.19v2.324h1.83v-3.014h1.155v7.365h-1.155v-3.346h-1.83V300.461z
				 M401.674,295.586h-2.896v3.945h2.896V295.586z M399.543,302.141h8.834v4.799h-8.834V302.141L399.543,302.141z M400.743,305.952
				h6.436v-2.836h-6.436V305.952z M408.377,293.682v7.783h-1.17v-7.783H408.377z"/>
			<path fill="#6B6B6B" d="M421.908,293.667v13.484h-1.229v-7.5h-3.149v4.096h-6.165v-9.016h1.215v3.494h3.75v-3.494h1.2v3.93h3.149
				v-4.994H421.908L421.908,293.667z M416.328,299.202h-3.75v3.539h3.75V299.202z"/>
			<path fill="#6B6B6B" d="M436.818,304.301v1.02h-12.195v-1.02H436.818z M435.663,301.452c-2.04-0.465-4.14-1.906-4.995-3.885
				c-0.854,1.965-2.954,3.404-4.979,3.885l-0.555-1.021c2.354-0.465,4.89-2.488,4.89-4.783v-1.035h1.29v1.035
				c0,2.295,2.55,4.334,4.905,4.783L435.663,301.452z"/>
			<path fill="#6B6B6B" d="M440.434,302.862c2.205,0,4.185-0.104,6.539-0.479l0.121,1.004c-2.432,0.406-4.472,0.496-6.78,0.496
				h-1.11v-5.16h4.95v-2.805h-4.995v-1.008h6.24v4.814h-4.965V302.862L440.434,302.862z M449.463,293.651v13.484h-1.23v-13.484
				H449.463z"/>
			<path fill="#6B6B6B" d="M464.418,304.301v1.02h-12.194v-1.02H464.418z M463.264,301.452c-2.041-0.465-4.142-1.906-4.995-3.885
				c-0.854,1.965-2.955,3.404-4.979,3.885l-0.555-1.021c2.354-0.465,4.889-2.488,4.889-4.783v-1.035h1.291v1.035
				c0,2.295,2.55,4.334,4.904,4.783L463.264,301.452z"/>
			<path fill="#6B6B6B" d="M478.218,304.375v1.006h-12.21v-1.006H478.218z M476.823,301.917h-9.239v-7.08h9.104v0.99h-7.859v1.994
				h7.562v0.975h-7.562v2.131h7.995L476.823,301.917L476.823,301.917z"/>
			<path fill="#6B6B6B" d="M342.304,318.629v3.555h3.899v-3.555h1.215v9.074h-6.329v-9.074H342.304z M342.304,326.7h3.899v-3.541
				h-3.899V326.7z M351.333,317.489v13.471h-1.229v-13.471H351.333z"/>
			<path fill="#6B6B6B" d="M366.288,328.049v1.004h-12.165v-1.004h2.985v-4.455h1.215v4.455h2.115v-4.455h1.215v4.455H366.288z
				 M363.634,319.844h-8.25v-1.004h9.479v1.484c0,1.709,0,3.465-0.479,5.984l-1.216-0.15c0.466-2.4,0.466-4.17,0.466-5.834V319.844z
				"/>
			<path fill="#6B6B6B" d="M374.823,318.344c0,3.404-2.385,5.82-6.24,6.914l-0.51-0.959c3.195-0.916,5.19-2.67,5.445-4.949h-4.771
				v-1.006H374.823L374.823,318.344z M370.309,325.739h8.685v5.01h-8.685V325.739z M371.523,329.758h6.27v-3.045h-6.27V329.758z
				 M378.993,317.489v7.68h-1.229v-3.209h-2.925v-1.006h2.925v-3.465H378.993L378.993,317.489z"/>
			<path fill="#6B6B6B" d="M393.934,328.258v1.021h-12.226v-1.021h5.49v-2.773h-3.915v-6.898h9.12v1.006h-7.875v1.889h7.575v0.975
				h-7.575v2.025h8.01v1.006h-4.109v2.773h5.505V328.258z"/>
			<path fill="#6B6B6B" d="M411.078,327.223h-5.489v3.736h-1.245v-3.736h-5.46v-1.004h12.193L411.078,327.223L411.078,327.223z
				 M410.328,320.024h-10.814v-0.99h4.83v-1.617h1.245v1.617h4.739V320.024L410.328,320.024z M404.974,320.79
				c2.715,0,4.35,0.811,4.35,2.25s-1.635,2.234-4.35,2.234c-2.745,0-4.38-0.795-4.38-2.234S402.229,320.79,404.974,320.79z
				 M404.974,321.735c-1.965,0-3.105,0.48-3.105,1.305s1.141,1.307,3.105,1.307s3.075-0.48,3.075-1.307
				S406.938,321.735,404.974,321.735z"/>
			<path fill="#6B6B6B" d="M423.258,325.319c-1.484-0.584-2.641-1.74-3.209-3.193c-0.57,1.604-1.771,2.881-3.347,3.51l-0.645-0.977
				c2.01-0.732,3.358-2.639,3.358-4.691v-1.666h1.23v1.711c0,1.875,1.32,3.645,3.255,4.363L423.258,325.319z M427.443,329.639v1.004
				h-8.97v-4.199h1.229v3.195H427.443z M425.883,321.674h-2.939v-1.02h2.939v-3.15h1.244v10.049h-1.244V321.674z"/>
			<path fill="#6B6B6B" d="M437.164,325.004c-1.5-0.541-2.654-1.65-3.239-3.029c-0.57,1.559-1.814,2.818-3.392,3.42l-0.645-0.977
				c2.01-0.734,3.391-2.549,3.391-4.484v-0.465h-3v-0.99h7.185v0.99h-2.954v0.465c0,1.725,1.318,3.42,3.27,4.109L437.164,325.004z
				 M440.959,328.44c0,1.59-1.711,2.504-4.471,2.504s-4.483-0.914-4.483-2.504c0-1.592,1.725-2.506,4.483-2.506
				S440.959,326.848,440.959,328.44z M439.743,328.44c0-0.977-1.229-1.561-3.255-1.561c-2.025,0-3.254,0.584-3.254,1.561
				s1.229,1.545,3.254,1.545C438.514,329.985,439.743,329.415,439.743,328.44z M439.684,320.985v-3.479h1.244v8.01h-1.244v-3.525
				h-2.655v-1.004h2.655V320.985z"/>
			<path fill="#6B6B6B" d="M453.993,323.864h-6.284v-5.504h6.284V323.864z M454.398,327.075c0.015,1.289,2.115,2.594,4.424,2.879
				l-0.42,0.945c-2.023-0.285-3.824-1.215-4.619-2.459c-0.811,1.273-2.67,2.174-4.694,2.459l-0.404-0.945
				c2.295-0.27,4.438-1.545,4.455-2.879h-3.931v-0.945h3.944v-1.305h1.245v1.305h3.944v0.945H454.398z M452.793,319.334h-3.885
				v3.539h3.885V319.334z M458.027,325.213h-1.229v-7.725h1.229V325.213z"/>
			<path fill="#6B6B6B" d="M470.688,320.399c-0.84,2.115-2.896,3.555-5.864,4.26l-0.451-1.004c3.285-0.766,5.16-2.371,5.386-4.5
				h-4.681v-1.006h6.017c0,0.451-0.045,0.871-0.136,1.291h3.046v-1.951h1.243v6.871h-1.243v-1.396h-3.512v-0.959h3.512v-1.605
				H470.688L470.688,320.399z M475.698,329.834v0.975h-9.09v-3.465h7.409v-1.381h-7.439v-0.988h8.67v3.299h-7.425v1.563h7.875
				V329.834z"/>
			<path fill="#6B6B6B" d="M481.908,321.284c0,2.34,1.005,4.68,2.865,5.73l-0.75,0.898c-1.305-0.779-2.235-2.221-2.7-3.93
				c-0.465,1.844-1.439,3.42-2.773,4.26l-0.75-0.916c1.875-1.125,2.924-3.568,2.924-6.045v-1.215h-2.549v-1.004h6.135v1.004h-2.4
				L481.908,321.284L481.908,321.284z M485.508,317.79h1.17v12.449h-1.17v-6.914h-2.221v-1.006h2.221V317.79z M489.393,317.475
				v13.453h-1.186v-13.453H489.393z"/>
		</g>
		<path fill="#FFD45C" d="M443.209,232.352c0,15.445-12.518,27.963-27.96,27.963s-27.961-12.518-27.961-27.963
			c0-15.438,12.519-27.957,27.961-27.957S443.209,216.915,443.209,232.352z"/>
		<g>
			
				<path fill="#FFD45C" stroke="#FFFFFF" stroke-width="1.452" stroke-linecap="round" stroke-linejoin="round" stroke-miterlimit="10" d="
				M401.14,219.106c0-1.176,0.955-2.127,2.127-2.127h17.485c1.174,0,2.125,0.951,2.125,2.127v21.381
				c0,1.174-0.951,2.127-2.125,2.127h-17.485c-1.172,0-2.127-0.953-2.127-2.127V219.106L401.14,219.106z"/>
			
				<path fill="#FFD45C" stroke="#FFFFFF" stroke-width="1.452" stroke-linecap="round" stroke-linejoin="round" stroke-miterlimit="10" d="
				M404.382,222.344c0-1.174,0.95-2.125,2.125-2.125h17.482c1.176,0,2.127,0.951,2.127,2.125v21.383
				c0,1.176-0.951,2.127-2.127,2.127h-17.482c-1.175,0-2.125-0.951-2.125-2.127V222.344z"/>
			
				<path fill="#FFD45C" stroke="#FFFFFF" stroke-width="1.452" stroke-linecap="round" stroke-linejoin="round" stroke-miterlimit="10" d="
				M407.621,225.586c0-1.174,0.951-2.127,2.126-2.127h17.483c1.176,0,2.127,0.953,2.127,2.127v21.381
				c0,1.176-0.951,2.125-2.127,2.125h-17.483c-1.175,0-2.126-0.949-2.126-2.125V225.586z"/>
			
				<line fill="none" stroke="#FFFFFF" stroke-width="1.452" stroke-linecap="round" stroke-linejoin="round" stroke-miterlimit="10" x1="410.804" y1="239.698" x2="426.412" y2="239.698"/>
			
				<circle fill="#FFD45C" stroke="#FFFFFF" stroke-width="1.452" stroke-linecap="round" stroke-linejoin="round" stroke-miterlimit="10" cx="413.734" cy="231.053" r="2.826"/>
		</g>
		<g>
			<path fill="#FFD45C" d="M731.955,232.352c0,15.445-12.518,27.963-27.959,27.963c-15.442,0-27.961-12.518-27.961-27.963
				c0-15.438,12.519-27.957,27.961-27.957C719.438,204.395,731.955,216.915,731.955,232.352z"/>
			
				<line fill="none" stroke="#FFFFFF" stroke-width="1.8419" stroke-linecap="round" stroke-linejoin="round" stroke-miterlimit="10" x1="691.438" y1="245.268" x2="716.555" y2="245.268"/>
			
				<polyline fill="none" stroke="#FFFFFF" stroke-width="2.1181" stroke-linecap="round" stroke-linejoin="round" stroke-miterlimit="10" points="
				692.857,229.594 702.574,238.491 715.133,222.18 			"/>
		</g>
		<g>
			<g>
				<path fill="#4F4F4F" d="M391.627,177.271l0.62-2.055c1.099,0.395,2.349,0.442,3.315,0.032c1.146-0.486,1.547-1.236,1.218-2.011
					c-0.347-0.818-1.124-0.786-2.283-0.786l-1.737,0.001c-1.313,0.012-2.808-0.406-3.489-2.014
					c-0.764-1.801,0.225-3.854,2.457-4.802c1.28-0.543,2.773-0.581,4.052-0.052l-0.528,1.857c-0.944-0.284-1.813-0.303-2.721,0.084
					c-0.967,0.41-1.409,1.106-1.099,1.836c0.335,0.789,1.244,0.735,2.339,0.711l1.702-0.003c1.571-0.02,2.811,0.457,3.485,2.049
					c0.765,1.8-0.087,3.971-2.632,5.051C394.854,177.797,393.135,177.843,391.627,177.271z"/>
				<path fill="#4F4F4F" d="M401.554,164.66l-3.272,0.766l-0.453-1.936l8.904-2.081l0.453,1.935l-3.304,0.772l2.269,9.706
					l-2.328,0.545L401.554,164.66z"/>
				<path fill="#4F4F4F" d="M410.487,161l7.337-0.243l0.064,1.988l-4.944,0.163l0.091,2.763l4.201-0.139l0.066,2.004l-4.202,0.139
					l0.105,3.199l5.122-0.169l0.066,2.004l-7.514,0.248L410.487,161z"/>
				<path fill="#4F4F4F" d="M422.393,161.093l3.859,0.716c2.604,0.482,4.438,1.76,3.924,4.539c-0.498,2.686-2.738,3.519-5.265,3.05
					l-1.572-0.291l-0.774,4.178l-2.352-0.438L422.393,161.093z M425.098,167.509c1.619,0.301,2.524-0.237,2.774-1.588
					c0.253-1.366-0.52-1.985-2.14-2.286l-1.335-0.248l-0.715,3.86L425.098,167.509z"/>
				<path fill="#4F4F4F" d="M430.007,173.47c4.117-1.438,6.757-2.772,7.465-4.475c0.466-1.119,0.134-2.046-0.911-2.48
					c-0.807-0.335-1.695-0.093-2.502,0.29l-0.697-1.69c1.463-0.651,2.695-0.839,4.203-0.212c2.089,0.87,2.918,2.79,2.061,4.85
					c-0.832,2-3.383,3.459-6.217,4.591c0.576,0.17,1.333,0.415,1.84,0.626l2.402,1l-0.77,1.852l-7.402-3.081L430.007,173.47z"/>
			</g>
		</g>
		<g>
			<g>
				<path fill="#4F4F4F" d="M680.374,177.271l0.62-2.055c1.099,0.395,2.349,0.442,3.314,0.032c1.146-0.486,1.547-1.236,1.219-2.011
					c-0.348-0.818-1.124-0.786-2.283-0.786l-1.737,0.001c-1.312,0.012-2.808-0.406-3.488-2.014
					c-0.764-1.801,0.225-3.854,2.457-4.802c1.279-0.543,2.772-0.581,4.051-0.052L684,167.442c-0.945-0.284-1.814-0.303-2.723,0.084
					c-0.967,0.41-1.409,1.106-1.099,1.836c0.334,0.789,1.243,0.735,2.338,0.711l1.703-0.003c1.572-0.02,2.811,0.457,3.485,2.049
					c0.765,1.8-0.088,3.971-2.633,5.051C683.6,177.797,681.881,177.843,680.374,177.271z"/>
				<path fill="#4F4F4F" d="M690.3,164.66l-3.272,0.766l-0.452-1.936l8.904-2.081l0.452,1.935l-3.303,0.772l2.268,9.706
					l-2.328,0.545L690.3,164.66z"/>
				<path fill="#4F4F4F" d="M699.234,161l7.336-0.243l0.065,1.988l-4.944,0.163l0.092,2.763l4.201-0.139l0.066,2.004l-4.202,0.139
					l0.105,3.199l5.122-0.169l0.065,2.004l-7.515,0.248L699.234,161z"/>
				<path fill="#4F4F4F" d="M711.139,161.093l3.86,0.716c2.604,0.482,4.438,1.76,3.923,4.539c-0.497,2.686-2.738,3.519-5.265,3.05
					l-1.571-0.291l-0.775,4.178l-2.352-0.438L711.139,161.093z M713.844,167.509c1.62,0.301,2.524-0.237,2.774-1.588
					c0.254-1.366-0.52-1.985-2.139-2.286l-1.335-0.248l-0.716,3.86L713.844,167.509z"/>
				<path fill="#4F4F4F" d="M718.525,173.304l1.606-0.959c0.39,0.915,0.99,1.743,1.989,2.159c1.12,0.466,2.11,0.229,2.521-0.755
					c0.453-1.09,0.091-2.028-2.313-3.028l0.659-1.581c2.029,0.845,2.979,0.416,3.389-0.567c0.359-0.866,0.033-1.598-0.9-2.003
					c-0.797-0.314-1.594-0.208-2.498,0.114l-0.561-1.809c1.303-0.438,2.579-0.52,3.878,0.021c2.134,0.888,3.146,2.534,2.357,4.431
					c-0.497,1.193-1.529,1.779-2.899,1.752l-0.031,0.074c1.11,0.864,1.682,2.188,1.078,3.635c-0.845,2.03-3.111,2.47-5.216,1.594
					C719.84,175.655,718.934,174.509,718.525,173.304z"/>
			</g>
		</g>
	</g>
	<g>
		<path fill="none" stroke="#020202" stroke-width="1.6093" stroke-linecap="round" stroke-miterlimit="10" d="M50.215,101.656
			c1.355,0,1.951,0,2.112,0c0.423,0,0.677-0.591,0.677-0.591s0-9.438,0-11.803c0-2.704-2.535-2.704-2.535-2.704h-4.707l-1.556-9.043
			c0-0.355-0.288-0.646-0.644-0.646H11.966c-0.354,0-0.644,0.289-0.644,0.646v16.951"/>
		
			<line fill="none" stroke="#020202" stroke-width="1.6093" stroke-linecap="round" stroke-miterlimit="10" x1="24.358" y1="101.656" x2="39.542" y2="101.656"/>
		<rect x="9.799" y="80.774" fill="#FFFFFF" width="3.213" height="2.654"/>
		<path fill="none" stroke="#020202" stroke-width="1.6093" stroke-linecap="round" stroke-miterlimit="10" d="M15.91,96.563h-4.543
			c0,0-1.25-0.048-1.25,0.834c0,0.88,0,3.471,0,3.471s0.045,0.789,0.926,0.789c0.88,0,2.964,0,2.964,0"/>
		
			<line fill="none" stroke="#020202" stroke-width="1.6093" stroke-linecap="round" stroke-miterlimit="10" x1="1.023" y1="82.102" x2="14.354" y2="82.102"/>
		
			<line fill="none" stroke="#020202" stroke-width="1.6093" stroke-linecap="round" stroke-miterlimit="10" x1="1.023" y1="85.722" x2="6.172" y2="85.722"/>
		
			<circle fill="none" stroke="#020202" stroke-width="1.6093" stroke-linecap="round" stroke-miterlimit="10" cx="19.128" cy="102.942" r="2.843"/>
		
			<circle fill="none" stroke="#020202" stroke-width="1.6093" stroke-linecap="round" stroke-miterlimit="10" cx="44.981" cy="102.942" r="2.843"/>
		
			<line fill="none" stroke="#020202" stroke-width="1.6093" stroke-linecap="round" stroke-miterlimit="10" x1="36.421" y1="90.176" x2="36.421" y2="98.813"/>
		
			<path fill="none" stroke="#020202" stroke-width="1.6093" stroke-linecap="round" stroke-linejoin="round" stroke-miterlimit="10" d="
			M18.672,82.104h7.241c0,0,5.151-0.241,4.023,6.355c-1.126,6.599-2.521,8.103-9.228,8.103h-5.39l2.977-9.312"/>
	</g>
	<g>
		
			<line fill="none" stroke="#DBDBDB" stroke-width="0.4972" stroke-miterlimit="10" x1="269.055" y1="149.701" x2="269.055" y2="370.936"/>
		
			<line fill="none" stroke="#DBDBDB" stroke-width="0.4972" stroke-miterlimit="10" x1="560.645" y1="149.701" x2="560.645" y2="370.936"/>
	</g>
</g>
</svg>
