<?xml version="1.0" encoding="utf-8"?>
<!-- Generator: Adobe Illustrator 16.0.0, SVG Export Plug-In . SVG Version: 6.00 Build 0)  -->
<!DOCTYPE svg PUBLIC "-//W3C//DTD SVG 1.1//EN" "http://www.w3.org/Graphics/SVG/1.1/DTD/svg11.dtd">
<svg version="1.1" id="레이어_1" xmlns="http://www.w3.org/2000/svg" xmlns:xlink="http://www.w3.org/1999/xlink" x="0px"
	 y="0px" width="436.14px" height="99.393px" viewBox="0 0 436.14 99.393" enable-background="new 0 0 436.14 99.393"
	 xml:space="preserve">
<g>
	<g enable-background="new    ">
		<path fill="#868787" d="M18.767,80.662c-0.841,0.177-1.777,0.285-2.7,0.34v4.191h-1.058v-4.138
			c-0.922,0.041-1.804,0.055-2.496,0.055l-0.149-0.95c1.655,0,4.354-0.026,6.321-0.325L18.767,80.662z M17.953,79.157
			c-1.126-0.366-1.926-1.1-2.36-2.008c-0.407,1.03-1.275,1.858-2.482,2.265l-0.542-0.827c1.546-0.502,2.482-1.709,2.482-3.012
			v-0.664h1.071v0.664c0,1.222,0.896,2.32,2.36,2.754L17.953,79.157z M19.472,74.287h1.045v11.245h-1.045v-2.808h-2.265v-0.868
			h2.265V74.287z M22.836,74.03v12.154h-1.072V74.03H22.836z"/>
		<path fill="#868787" d="M36.031,83.701v0.922H25.002v-0.922H36.031z M27.865,76.132h-1.885v-0.896H35v0.896h-1.885v4.232h1.858
			v0.909h-8.967v-0.909h1.858V76.132z M32.002,76.132h-3.025v4.232h3.025V76.132z"/>
	</g>
	<g enable-background="new    ">
		<path fill="#868787" d="M103.224,82.141h-4.951v4.043h-1.126v-4.043h-4.951v-0.908h11.028V82.141z M95.085,75.603h-1.831v-0.908
			h8.912v0.908h-1.832v3.311h1.791v0.908h-8.831v-0.908h1.791V75.603z M99.222,75.603h-3.025v3.311h3.025V75.603z"/>
		<path fill="#868787" d="M115.714,83.62v0.922h-11.042V83.62H115.714z M114.438,80.758h-8.356v-5.63h8.234v0.923h-7.135v3.798
			h7.257V80.758z"/>
		<path fill="#868787" d="M128.19,83.701v0.909h-11.042v-0.909H128.19z M126.929,81.477h-8.356v-6.403h8.234v0.896h-7.108v1.805
			h6.837v0.882h-6.837v1.926h7.23V81.477z"/>
		<path fill="#868787" d="M136.597,80.487c-1.885,0.298-3.432,0.353-5.521,0.353h-0.922v-3.54h4.273v-1.642h-4.313v-0.896h5.399
			v3.392h-4.273v1.776c1.967,0,3.459-0.067,5.263-0.353L136.597,80.487z M131.51,82.141h8.153v4.043h-1.126V83.05h-7.027V82.141z
			 M139.663,74.03v7.434h-1.126v-3.608h-2.252v-0.909h2.252V74.03H139.663z"/>
	</g>
	<g enable-background="new    ">
		<path fill="#868787" d="M194.387,83.729v0.922h-11.055v-0.922h4.951v-3.12h-3.541v-5.616h8.248v0.909h-7.135v3.812h7.257v0.896
			h-3.703v3.12H194.387z"/>
		<path fill="#868787" d="M200.135,77.258c0,2.225,1.451,4.463,3.255,5.276l-0.665,0.896c-1.384-0.678-2.55-2.116-3.133-3.853
			c-0.556,1.831-1.723,3.351-3.147,4.083l-0.678-0.908c1.791-0.855,3.27-3.188,3.27-5.494v-2.185h1.099V77.258z M205.778,74.016
			v12.195h-1.112V74.016H205.778z"/>
		<path fill="#868787" d="M215.568,80.365c-1.926,0.325-3.527,0.407-5.779,0.407h-0.963v-3.514h4.354v-1.614h-4.382v-0.909h5.48
			v3.378h-4.354v1.75c2.13,0,3.69-0.081,5.535-0.407L215.568,80.365z M209.831,82.06h7.908v4.11h-1.112v-3.215h-6.796V82.06z
			 M219.542,78.058h-1.804v3.364h-1.112V74.03h1.112v3.106h1.804V78.058z"/>
		<path fill="#868787" d="M230.798,74.03v6.524h-1.126v-2.727h-2.469c-0.218,1.438-1.438,2.388-3.106,2.388
			c-1.818,0-3.134-1.14-3.134-2.821c0-1.669,1.315-2.809,3.134-2.809c1.641,0,2.862,0.923,3.093,2.334h2.482v-2.89H230.798z
			 M226.172,77.394c0-1.112-0.868-1.886-2.075-1.886s-2.076,0.773-2.076,1.886s0.869,1.898,2.076,1.898
			S226.172,78.506,226.172,77.394z M229.686,81.151h1.112v4.87h-7.787v-4.87h1.1v1.533h5.575V81.151z M229.686,83.552h-5.575v1.573
			h5.575V83.552z"/>
		<path fill="#868787" d="M236.791,77.76c0,1.939,0.977,3.947,2.618,4.829l-0.638,0.841c-1.18-0.665-2.049-1.899-2.496-3.364
			c-0.42,1.547-1.275,2.903-2.469,3.622l-0.65-0.827c1.641-0.977,2.576-3.106,2.576-5.101v-0.583h-2.251v-0.923h2.251V74.45h1.072
			v1.804h2.238v0.923h-2.252V77.76z M240.074,74.301h1.058v11.245h-1.058V79.74h-1.859v-0.923h1.859V74.301z M243.587,74.016V86.17
			h-1.072V74.016H243.587z"/>
	</g>
	<g enable-background="new    ">
		<path fill="#868787" d="M285.382,83.769v0.909h-11.055v-0.909h4.951v-2.292h-3.568v-3.758h7.217V75.82h-7.243v-0.908h8.329v3.703
			h-7.203v1.967h7.488v0.896h-3.894v2.292H285.382z"/>
		<path fill="#868787" d="M293.071,74.613c0,3.053-1.736,5.101-5.508,6.091l-0.407-0.854c2.021-0.502,3.324-1.329,4.057-2.374
			l-3.92,0.299l-0.164-0.882l4.518-0.204c0.136-0.379,0.23-0.772,0.271-1.193h-4.205v-0.882H293.071z M297.249,85.139v0.882h-8.22
			v-3.052h6.714v-1.221h-6.741v-0.882h7.84v2.93h-6.715v1.343H297.249z M295.716,77.841h-2.619v-0.896h2.619v-2.93h1.125v6.294
			h-1.125V77.841z"/>
		<path fill="#868787" d="M310.294,79.93v0.896h-11.001V79.93H310.294z M309.06,76.593c0,1.438-1.641,2.293-4.272,2.293
			s-4.272-0.854-4.272-2.293c0-1.451,1.641-2.306,4.272-2.306S309.06,75.142,309.06,76.593z M308.953,82.019v4.002h-8.303v-4.002
			H308.953z M301.654,76.593c0,0.896,1.207,1.425,3.134,1.425s3.134-0.529,3.134-1.425s-1.207-1.424-3.134-1.424
			S301.654,75.698,301.654,76.593z M301.736,82.901v2.225h6.131v-2.225H301.736z"/>
		<path fill="#868787" d="M318.552,80.622c-1.396-0.502-2.496-1.547-3.039-2.89c-0.528,1.438-1.641,2.563-3.065,3.106l-0.569-0.882
			c1.831-0.665,3.065-2.36,3.065-4.178v-1.194h1.112v1.194c0,1.75,1.248,3.337,3.053,3.961L318.552,80.622z M313.615,81.965h8.139
			v4.232h-1.112v-3.337h-7.026V81.965z M321.753,74.03v7.312h-1.112V74.03H321.753z"/>
		<path fill="#868787" d="M330.867,80.744c-1.357-0.488-2.402-1.506-2.931-2.754c-0.529,1.397-1.642,2.51-3.065,3.025l-0.584-0.868
			c1.805-0.651,3.066-2.266,3.066-3.988v-0.462h-2.713v-0.908h6.497v0.908h-2.673v0.448c0,1.587,1.194,3.106,2.958,3.73
			L330.867,80.744z M326.363,81.735h7.908v4.286h-7.908V81.735z M327.448,85.125h5.737v-2.509h-5.737V85.125z M334.271,74.016v7.122
			h-1.126V77.99h-2.401v-0.923h2.401v-3.052H334.271z"/>
	</g>
	<g enable-background="new    ">
		<path fill="#868787" d="M368.755,74.328h1.045V85.56h-1.045v-5.833h-2.252c-0.678,1.492-1.857,2.849-3.798,3.934l-0.638-0.8
			c1.858-1.004,2.971-2.279,3.568-3.703l-3.419,0.339l-0.149-0.95l3.866-0.257c0.177-0.638,0.271-1.275,0.312-1.94h-3.58v-0.896
			h4.652c0,1.14-0.136,2.293-0.475,3.364h1.912V74.328z M372.337,74.002V86.17h-1.059V74.002H372.337z"/>
		<path fill="#868787" d="M381.109,79.198c0,2.591-1.288,4.246-3.092,4.246c-1.805,0-3.094-1.655-3.094-4.246
			s1.289-4.246,3.094-4.246C379.821,74.951,381.109,76.607,381.109,79.198z M375.982,79.198c0,1.98,0.842,3.256,2.035,3.256
			c1.18,0,2.021-1.275,2.021-3.256c0-1.967-0.842-3.242-2.021-3.242C376.824,75.955,375.982,77.231,375.982,79.198z M384.433,74.016
			v12.195h-1.112V74.016H384.433z"/>
		<path fill="#868787" d="M388.621,82.359c2.198,0,3.609-0.082,5.264-0.38l0.123,0.908c-1.764,0.313-3.242,0.38-5.563,0.38h-0.936
			v-8.152h5.629v0.923h-4.518v2.509h3.988v0.896h-3.988V82.359z M396.978,74.002v12.195h-1.113v-6.674h-2.51v-0.923h2.51v-4.599
			H396.978z"/>
		<path fill="#868787" d="M406.944,80.365c-1.994,0.325-3.649,0.394-5.901,0.394h-0.977v-3.473h4.396v-1.601h-4.436v-0.909h5.534
			v3.364h-4.408v1.709c2.156,0,3.744-0.067,5.67-0.38L406.944,80.365z M409.48,83.959c0,1.41-1.56,2.211-4.096,2.211
			c-2.523,0-4.07-0.801-4.07-2.211c0-1.397,1.547-2.197,4.07-2.197C407.92,81.762,409.48,82.562,409.48,83.959z M408.369,83.959
			c0-0.827-1.113-1.316-2.984-1.316c-1.846,0-2.957,0.489-2.957,1.316c0,0.841,1.111,1.329,2.957,1.329
			C407.255,85.288,408.369,84.8,408.369,83.959z M409.413,81.504H408.3v-7.488h1.112V81.504z"/>
		<path fill="#868787" d="M421.93,74.03v6.524h-1.126v-2.727h-2.469c-0.217,1.438-1.438,2.388-3.106,2.388
			c-1.817,0-3.134-1.14-3.134-2.821c0-1.669,1.316-2.809,3.134-2.809c1.642,0,2.862,0.923,3.093,2.334h2.482v-2.89H421.93z
			 M417.304,77.394c0-1.112-0.868-1.886-2.075-1.886c-1.208,0-2.075,0.773-2.075,1.886s0.867,1.898,2.075,1.898
			C416.436,79.292,417.304,78.506,417.304,77.394z M420.818,81.151h1.112v4.87h-7.786v-4.87h1.099v1.533h5.575V81.151z
			 M420.818,83.552h-5.575v1.573h5.575V83.552z"/>
		<path fill="#868787" d="M427.921,77.76c0,1.939,0.978,3.947,2.619,4.829l-0.639,0.841c-1.18-0.665-2.048-1.899-2.495-3.364
			c-0.421,1.547-1.275,2.903-2.47,3.622l-0.65-0.827c1.641-0.977,2.577-3.106,2.577-5.101v-0.583h-2.251v-0.923h2.251V74.45h1.071
			v1.804h2.238v0.923h-2.252V77.76z M431.205,74.301h1.059v11.245h-1.059V79.74h-1.858v-0.923h1.858V74.301z M434.718,74.016V86.17
			h-1.072V74.016H434.718z"/>
	</g>
	<g opacity="0.8">
		<g>
			<path fill="#3A3A3A" d="M43.172,54.936h-6.574v-6.283c0-0.53-0.42-0.903-0.924-0.903c-0.494,0-0.904,0.373-0.904,0.903v6.283
				h-4.186V34.871c0.035-0.031,0.076-0.064,0.131-0.109c0.982,0.406,1.668,1.393,1.668,2.49c0,0.504,0.395,0.879,0.9,0.879h6
				c2.145,0,3.889,1.775,3.889,3.922V54.936L43.172,54.936z M1.809,42.053c0-2.146,1.744-3.922,3.898-3.922h5.975
				c0.533,0,0.912-0.375,0.912-0.879c0-1.099,0.676-2.084,1.664-2.49c2.117,2.113,5.033,3.369,8.234,3.369
				c2.322,0,4.48-0.648,6.293-1.832v18.637H9.008v-6.283c0-0.53-0.418-0.903-0.908-0.903c-0.5,0-0.895,0.373-0.895,0.903v6.283
				H1.809V42.053L1.809,42.053z M10.475,27.355c-1.467,0-2.684-1.194-2.684-2.703c0-1.469,1.217-2.684,2.684-2.684h0.367
				c-0.029,0.289-0.037,0.576-0.037,0.879c0,0.516,0.385,0.922,0.877,0.922c0.533,0,0.912-0.406,0.912-0.922
				c0-0.9,0.141-1.813,0.369-2.664h19.049c0.248,0.851,0.371,1.764,0.371,2.664c0,0.516,0.395,0.922,0.9,0.922
				c0.477,0,0.898-0.406,0.898-0.922c0-0.303-0.016-0.59-0.035-0.879h0.348c1.479,0,2.674,1.215,2.674,2.684
				c0,1.509-1.195,2.703-2.674,2.703h-0.348c0.02-0.311,0.035-0.588,0.035-0.899c0-0.506-0.408-0.9-0.898-0.9
				c-0.506,0-0.9,0.396-0.9,0.9c0,5.438-4.432,9.895-9.891,9.895s-9.898-4.455-9.898-9.895c0-0.506-0.379-0.9-0.912-0.9
				c-0.492,0-0.877,0.396-0.877,0.9c0,0.313,0.008,0.59,0.037,0.899H10.475L10.475,27.355z M26.227,14.693
				c-0.201-0.471-0.715-0.668-1.174-0.471c-0.813,0.355-1.664,0.535-2.561,0.535c-1.523,0-2.992-0.535-4.141-1.57
				c-0.373-0.299-0.896-0.264-1.236,0.082c-0.957,0.953-2.252,1.488-3.623,1.488c-2.797,0-5.096-2.256-5.096-5.076
				c0-2.818,2.299-5.094,5.096-5.094c0.904,0,1.779,0.211,2.559,0.688c0.396,0.234,0.922,0.101,1.203-0.289
				c1.164-1.739,3.121-2.786,5.238-2.786c2.104,0,4.059,1.047,5.225,2.786c0.273,0.39,0.809,0.523,1.229,0.289
				c0.764-0.477,1.639-0.688,2.539-0.688c2.814,0,5.113,2.274,5.113,5.094c0,2.82-2.299,5.076-5.113,5.076
				c-0.732,0-1.43-0.129-2.084-0.441c-0.455-0.196-1.008,0-1.188,0.441c-0.223,0.461,0,1.006,0.434,1.195
				c0.893,0.416,1.863,0.627,2.838,0.627c0.156,0,0.309-0.019,0.455-0.019l-0.119,1.832H13.16l-0.127-1.832
				c0.164,0,0.314,0.019,0.459,0.019c1.584,0,3.086-0.545,4.309-1.511c1.367,0.966,2.996,1.511,4.691,1.511
				c1.154,0,2.273-0.281,3.301-0.726C26.227,15.678,26.439,15.156,26.227,14.693L26.227,14.693z M39.283,36.35h-5.189
				c-0.268-1.246-1.066-2.328-2.176-2.983c0.912-1.261,1.58-2.668,1.941-4.224h0.635c2.484,0,4.496-1.996,4.496-4.49
				c0-2.442-2.012-4.469-4.496-4.469h-0.635c-0.086-0.342-0.188-0.688-0.279-1.037l0.193-2.977c2.674-0.951,4.615-3.51,4.615-6.488
				c0-3.82-3.107-6.897-6.904-6.897c-0.945,0-1.875,0.18-2.723,0.557c-1.557-1.875-3.836-2.943-6.27-2.943
				c-2.447,0-4.734,1.068-6.26,2.943c-0.861-0.377-1.791-0.557-2.74-0.557c-3.801,0-6.889,3.077-6.889,6.897
				c0,2.979,1.916,5.537,4.586,6.488l0.219,2.977c-0.127,0.349-0.219,0.695-0.295,1.037h-0.639c-2.475,0-4.48,2.025-4.48,4.469
				c0,2.494,2.006,4.49,4.48,4.49h0.639c0.367,1.556,1.027,2.963,1.957,4.224c-1.115,0.655-1.904,1.737-2.174,2.983H5.707
				C2.563,36.35,0,38.908,0,42.053V55.86c0,0.474,0.404,0.882,0.904,0.882h43.162c0.494,0,0.914-0.408,0.914-0.882V42.053
				C44.98,38.908,42.414,36.35,39.283,36.35L39.283,36.35z"/>
			<path fill="#3A3A3A" d="M19.664,30.912c0.42,1.192,1.559,2,2.828,2c1.273,0,2.404-0.808,2.818-2
				c0.176-0.478-0.07-0.988-0.545-1.164c-0.463-0.162-0.982,0.061-1.139,0.553c-0.184,0.48-0.631,0.805-1.135,0.805
				c-0.508,0-0.967-0.323-1.131-0.805c-0.162-0.492-0.688-0.715-1.139-0.553C19.734,29.924,19.5,30.436,19.664,30.912L19.664,30.912
				z"/>
			<path fill="#3A3A3A" d="M25.182,50.473c0.51,0,0.91,0.375,0.91,0.879c0,0.49-0.4,0.881-0.91,0.881c-0.504,0-0.9-0.391-0.9-0.881
				C24.281,50.848,24.678,50.473,25.182,50.473L25.182,50.473z"/>
			<path fill="#3A3A3A" d="M25.182,43.26c0.51,0,0.91,0.396,0.91,0.887c0,0.508-0.4,0.896-0.91,0.896c-0.504,0-0.9-0.39-0.9-0.896
				C24.281,43.656,24.678,43.26,25.182,43.26L25.182,43.26z"/>
			<path fill="#3A3A3A" d="M17.164,23.664c0.488,0,0.885,0.397,0.885,0.893c0,0.508-0.396,0.914-0.885,0.914
				c-0.512,0-0.908-0.406-0.908-0.914C16.256,24.063,16.652,23.664,17.164,23.664L17.164,23.664z"/>
			<path fill="#3A3A3A" d="M27.783,23.664c0.498,0,0.904,0.397,0.904,0.893c0,0.508-0.406,0.914-0.904,0.914
				c-0.504,0-0.902-0.406-0.902-0.914C26.881,24.063,27.279,23.664,27.783,23.664L27.783,23.664z"/>
		</g>
	</g>
	<g opacity="0.8">
		<g>
			<path fill="#3A3A3A" d="M136.471,46.709c-1.611,0-2.951,1.317-2.951,2.961c0,0.531,0.426,0.979,0.984,0.979
				c0.537,0,0.986-0.446,0.986-0.979c0-0.547,0.436-0.992,0.98-0.992c0.544,0,0.992,0.445,0.992,0.992
				c0,0.531-0.447,0.979-0.992,0.979c-0.545,0-0.98,0.435-0.98,1.023c0,0.502,0.436,0.949,0.98,0.949
				c1.619,0,2.941-1.306,2.941-2.951C139.412,48.027,138.09,46.709,136.471,46.709L136.471,46.709z"/>
			<path fill="#3A3A3A" d="M94.436,50.648c0.537,0,0.992-0.446,0.992-0.979c0-0.547,0.438-0.992,0.971-0.992
				c0.539,0,0.992,0.445,0.992,0.992c0,0.531-0.453,0.979-0.992,0.979c-0.533,0-0.971,0.435-0.971,1.023
				c0,0.502,0.438,0.949,0.971,0.949c1.648,0,2.971-1.306,2.971-2.951c0-1.644-1.322-2.961-2.971-2.961
				c-1.627,0-2.959,1.317-2.959,2.961C93.439,50.201,93.885,50.648,94.436,50.648L94.436,50.648z"/>
			<g>
				<path fill="#3A3A3A" d="M132.523,29.758H90.484c-0.529,0-0.986,0.449-0.986,0.979c0,0.566,0.457,0.994,0.986,0.994h42.039
					c0.557,0,0.996-0.428,0.996-0.994C133.52,30.207,133.08,29.758,132.523,29.758L132.523,29.758z"/>
				<path fill="#3A3A3A" d="M142.9,37.869c0-0.183,0.033-0.373,0.07-0.554c1.1,0.533,1.984,1.679,2.264,2.863c0,0-0.031,0-0.041,0
					C143.922,40.18,142.9,39.154,142.9,37.869L142.9,37.869z M136.471,54.592c-2.725,0-4.93-2.227-4.93-4.922
					c0-2.721,2.205-4.93,4.93-4.93c2.713,0,4.926,2.209,4.926,4.93C141.396,52.365,139.184,54.592,136.471,54.592L136.471,54.592z
					 M87.533,20.992c1.063,0.946,2.465,1.543,4.025,1.543c2.063,0,3.893-1.072,4.965-2.701c1.086,1.629,2.926,2.701,5,2.701
					c2.09,0,3.926-1.072,4.98-2.701c1.096,1.629,2.924,2.701,5.006,2.701c2.08,0,3.926-1.072,5.006-2.701
					c1.068,1.629,2.908,2.701,4.982,2.701c2.07,0,3.902-1.072,4.996-2.701c1.07,1.629,2.906,2.701,4.973,2.701
					c1.568,0,2.955-0.597,4.023-1.543v12.69H87.533V20.992L87.533,20.992z M95.428,17.539c-0.436,1.733-2.021,3.024-3.869,3.024
					c-1.889,0-3.461-1.291-3.896-3.024H95.428L95.428,17.539z M105.412,17.539c-0.443,1.733-2.014,3.024-3.889,3.024
					c-1.857,0-3.436-1.291-3.873-3.024H105.412L105.412,17.539z M115.4,17.539c-0.453,1.733-2.025,3.024-3.891,3.024
					c-1.867,0-3.439-1.291-3.881-3.024H115.4L115.4,17.539z M125.387,17.539c-0.445,1.733-2.023,3.024-3.889,3.024
					c-1.879,0-3.445-1.291-3.877-3.024H125.387L125.387,17.539z M135.363,17.539c-0.443,1.733-2.021,3.024-3.896,3.024
					c-1.852,0-3.439-1.291-3.865-3.024H135.363L135.363,17.539z M90.484,8.34h42.039c1.637,0,2.967,1.318,2.967,2.963v4.266h-8.008
					v-4.266c0-0.518-0.463-0.977-0.988-0.977c-0.549,0-0.988,0.459-0.988,0.977v4.266h-8.016v-4.266
					c0-0.518-0.445-0.977-0.975-0.977c-0.555,0-1,0.459-1,0.977v4.266h-8.018v-4.266c0-0.518-0.43-0.977-0.994-0.977
					c-0.531,0-0.973,0.459-0.973,0.977v4.266h-8.002v-4.266c0-0.518-0.457-0.977-1.006-0.977c-0.525,0-0.969,0.459-0.969,0.977
					v4.266h-8.021v-4.266C87.533,9.658,88.85,8.34,90.484,8.34L90.484,8.34z M96.398,44.74c2.723,0,4.92,2.209,4.92,4.93
					c0,2.695-2.197,4.922-4.92,4.922c-2.707,0-4.914-2.227-4.914-4.922C91.484,46.949,93.691,44.74,96.398,44.74L96.398,44.74z
					 M147.307,40.932c0-0.016,0-0.033,0-0.033c-0.027-2.616-2.104-5.192-4.625-5.76l-5.219-1.229V11.303
					c0-2.713-2.213-4.951-4.939-4.951h-42.04c-2.715,0-4.906,2.238-4.906,4.951V49.67c0,0.531,0.443,0.979,0.973,0.979h3.021
					c0.486,3.336,3.367,5.925,6.826,5.925c3.805,0,6.904-3.095,6.904-6.902c0-3.818-3.1-6.904-6.904-6.904
					c-3.459,0-6.34,2.58-6.826,5.912h-2.039V35.686h48.816l4.732,1.099c-0.1,0.352-0.146,0.723-0.146,1.086
					c0,2.366,1.904,4.266,4.258,4.266c0.041,0,0.1,0,0.152,0v6.543H143.3c-0.48-3.332-3.355-5.912-6.83-5.912
					c-3.467,0-6.324,2.58-6.813,5.912h-23.404c-0.545,0-0.99,0.445-0.99,0.992c0,0.531,0.445,0.979,0.99,0.979h23.404
					c0.488,3.336,3.346,5.925,6.813,5.925c3.475,0,6.35-2.589,6.83-5.925h3.033c0.533,0,0.973-0.446,0.973-0.979v-8.723
					C147.307,40.932,147.307,40.932,147.307,40.932L147.307,40.932z"/>
			</g>
		</g>
	</g>
	<g opacity="0.8">
		<path fill="#3A3A3A" d="M234.876,28.947h-42.011c-0.494,0-0.867,0.357-0.867,0.841c0,0.522,0.373,0.893,0.867,0.893h42.011
			c0.494,0,0.873-0.369,0.873-0.893C235.75,29.305,235.371,28.947,234.876,28.947L234.876,28.947z"/>
		<g>
			<g>
				<defs>
					<rect id="SVGID_1_" x="188.188" y="2.131" width="51.269" height="54.758"/>
				</defs>
				<clipPath id="SVGID_2_">
					<use xlink:href="#SVGID_1_"  overflow="visible"/>
				</clipPath>
				<path clip-path="url(#SVGID_2_)" fill="#3A3A3A" d="M200.668,7.375h26.305c0.479,0,0.862-0.414,0.862-0.9
					c0-0.465-0.385-0.873-0.862-0.873h-26.305c-0.486,0-0.883,0.408-0.883,0.873C199.785,6.961,200.182,7.375,200.668,7.375
					L200.668,7.375z"/>
			</g>
			<g>
				<defs>
					<rect id="SVGID_3_" x="188.188" y="2.131" width="51.269" height="54.758"/>
				</defs>
				<clipPath id="SVGID_4_">
					<use xlink:href="#SVGID_3_"  overflow="visible"/>
				</clipPath>
				<path clip-path="url(#SVGID_4_)" fill="#3A3A3A" d="M189.938,55.141V29.951l2.164-6.259h43.424l2.185,6.259V55.14
					L189.938,55.141L189.938,55.141z M192.543,7.375h3.396l-6.002,17.229V9.973C189.938,8.521,191.094,7.375,192.543,7.375
					L192.543,7.375z M235.085,7.375c1.447,0,2.623,1.146,2.623,2.598v14.631l-6.016-17.229H235.085L235.085,7.375z M235.085,5.602
					h-3.998l-1-2.873c-0.168-0.465-0.657-0.699-1.121-0.547c-0.452,0.16-0.686,0.648-0.536,1.107l6.508,18.649h-42.225l6.498-18.649
					c0.141-0.459-0.088-0.947-0.551-1.107c-0.463-0.152-0.949,0.082-1.107,0.547l-1.025,2.873h-3.984
					c-2.391,0-4.355,1.982-4.355,4.371v46.035c0,0.508,0.395,0.881,0.854,0.881h49.546c0.476,0,0.867-0.373,0.867-0.881V9.973
					C239.455,7.584,237.5,5.602,235.085,5.602L235.085,5.602z"/>
			</g>
		</g>
		<path fill="#3A3A3A" d="M224.596,14.646c0,1.443-1.183,2.627-2.628,2.627h-16.319c-1.43,0-2.611-1.184-2.611-2.627
			c0-1.432,1.182-2.617,2.611-2.617h16.319C223.414,12.029,224.596,13.215,224.596,14.646L224.596,14.646z M205.648,10.297
			c-2.393,0-4.361,1.922-4.361,4.35c0,2.406,1.969,4.373,4.361,4.373h16.32c2.408,0,4.379-1.967,4.379-4.373
			c0-2.428-1.971-4.35-4.379-4.35H205.648L205.648,10.297z"/>
		<path fill="#3A3A3A" d="M195.189,34.77c0.482,0,0.873,0.396,0.873,0.828c0,0.521-0.391,0.908-0.873,0.908
			c-0.477,0-0.869-0.389-0.869-0.908C194.32,35.166,194.713,34.77,195.189,34.77L195.189,34.77z"/>
		<path fill="#3A3A3A" d="M198.689,38.25c0.484,0,0.881,0.389,0.881,0.885c0,0.494-0.396,0.867-0.881,0.867
			c-0.492,0-0.871-0.373-0.871-0.867C197.818,38.639,198.197,38.25,198.689,38.25L198.689,38.25z"/>
		<path fill="#3A3A3A" d="M232.443,49.32c0.498,0,0.879,0.382,0.879,0.869c0,0.479-0.381,0.859-0.879,0.859
			c-0.477,0-0.867-0.381-0.867-0.859C231.576,49.701,231.966,49.32,232.443,49.32L232.443,49.32z"/>
	</g>
	<g opacity="0.8">
		<g>
			<path fill="#3A3A3A" d="M419.431,16.959h-17.52c-0.512,0-0.943,0.416-0.943,0.924c0,0.518,0.434,0.945,0.943,0.945h17.52
				c0.516,0,0.943-0.429,0.943-0.945C420.375,17.375,419.945,16.959,419.431,16.959L419.431,16.959z"/>
			<path fill="#3A3A3A" d="M375.335,22.588h14.102c-0.383,1.115-1.418,1.899-2.66,1.899h-8.795
				C376.75,24.488,375.712,23.703,375.335,22.588L375.335,22.588z M375.335,18.828h14.102c-0.383,1.098-1.418,1.866-2.66,1.866
				h-8.795C376.75,20.695,375.712,19.926,375.335,18.828L375.335,18.828z M375.335,15.051h14.102
				c-0.383,1.111-1.418,1.908-2.66,1.908h-8.795C376.75,16.959,375.712,16.162,375.335,15.051L375.335,15.051z M375.335,11.303
				h14.102c-0.383,1.098-1.418,1.896-2.66,1.896h-8.795C376.75,13.197,375.712,12.4,375.335,11.303L375.335,11.303z M399.017,15.051
				h23.23v9.438h-23.23V15.051L399.017,15.051z M410.63,3.762c5.404,0,9.848,4.131,10.313,9.437H400.32
				C400.787,7.893,405.25,3.762,410.63,3.762L410.63,3.762z M426.345,24.488h-2.195V15.05h0.293c0.516,0,0.947-0.414,0.947-0.916
				c0-0.537-0.434-0.938-0.947-0.938h-1.602c-0.459-6.041-5.27-10.823-11.264-11.256V0.936c0-0.52-0.414-0.936-0.947-0.936
				c-0.508,0-0.938,0.416-0.938,0.936v1.006c-6,0.433-10.814,5.216-11.266,11.257h-1.611c-0.521,0-0.934,0.399-0.934,0.938
				c0,0.502,0.412,0.916,0.934,0.916h0.318v9.438h-6.582c0.396-0.552,0.701-1.201,0.854-1.9h0.395c0.514,0,0.941-0.412,0.941-0.934
				c0-0.513-0.43-0.96-0.941-0.96h-1.248c0.396-0.53,0.701-1.157,0.855-1.866h0.395c0.512,0,0.941-0.429,0.941-0.945
				c0-0.508-0.43-0.924-0.941-0.924h-1.248c0.396-0.562,0.701-1.185,0.854-1.908h0.395c0.514,0,0.941-0.414,0.941-0.916
				c0-0.537-0.43-0.938-0.941-0.938h-1.248c0.396-0.578,0.701-1.216,0.855-1.896h0.395c0.512,0,0.941-0.447,0.941-0.947
				c0-0.518-0.43-0.934-0.941-0.934h-18.836c-0.533,0-0.951,0.416-0.951,0.934c0,0.5,0.418,0.947,0.951,0.947h0.396
				c0.15,0.68,0.449,1.316,0.875,1.896h-1.271c-0.533,0-0.951,0.399-0.951,0.938c0,0.502,0.418,0.916,0.951,0.916h0.396
				c0.15,0.725,0.449,1.348,0.875,1.908h-1.271c-0.533,0-0.951,0.416-0.951,0.924c0,0.518,0.418,0.945,0.951,0.945h0.396
				c0.15,0.709,0.449,1.336,0.875,1.866h-1.271c-0.533,0-0.951,0.447-0.951,0.96c0,0.521,0.418,0.934,0.951,0.934h0.396
				c0.15,0.699,0.449,1.35,0.875,1.9h-3.172c-0.516,0-0.939,0.416-0.939,0.948v7.525c0,0.531,0.426,0.93,0.939,0.93h46.49
				c0.529,0,0.939-0.397,0.939-0.93c0-0.502-0.41-0.947-0.939-0.947h-45.543v-5.66H425.4v5.66h-4.082
				c-0.525,0-0.936,0.445-0.936,0.947c0,0.531,0.41,0.93,0.936,0.93h3.756V53.33c-1.422-0.148-2.232-0.59-3.158-1.08
				c-1.152-0.652-2.484-1.402-5.004-1.402c-2.529,0-3.832,0.75-4.988,1.402c-1.115,0.604-2.082,1.108-4.109,1.108
				c-2.037,0-3.006-0.504-4.098-1.108c-1.16-0.652-2.475-1.402-5.008-1.402c-2.529,0-3.852,0.75-5.006,1.402
				c-1.105,0.604-2.084,1.108-4.109,1.108c-2.027,0-2.986-0.504-4.084-1.108c-1.156-0.652-2.492-1.402-5.016-1.402
				c-2.521,0-3.824,0.75-4.994,1.402c-0.271,0.115-0.527,0.252-0.795,0.389c-0.646,0.322-1.359,0.588-2.381,0.691V36.738
				c0-0.534-0.416-0.948-0.926-0.948c-0.525,0-0.951,0.414-0.951,0.948v17.566c0,0.523,0.426,0.938,0.951,0.938
				c1.166,0,2.07-0.166,2.838-0.386v3.197c0,0.537,0.402,0.949,0.928,0.949c0.512,0,0.941-0.412,0.941-0.949v-4.031
				c0.094-0.057,0.197-0.086,0.281-0.147c1.123-0.605,2.072-1.135,4.107-1.135c2.041,0,2.994,0.528,4.104,1.135
				c1.168,0.643,2.492,1.367,4.996,1.367c2.52,0,3.842-0.726,5.016-1.367c1.107-0.605,2.07-1.135,4.1-1.135
				c2.031,0,2.986,0.528,4.105,1.135c1.154,0.643,2.471,1.367,5,1.367c2.508,0,3.836-0.726,5.018-1.367
				c1.1-0.605,2.061-1.135,4.082-1.135c2.029,0,2.992,0.528,4.096,1.135c0.1,0.063,0.197,0.092,0.289,0.147v4.031
				c0,0.537,0.438,0.949,0.951,0.949c0.523,0,0.941-0.412,0.941-0.949v-3.197c0.758,0.22,1.664,0.386,2.834,0.386
				c0.52,0,0.955-0.414,0.955-0.938v-20.63c0.186-0.18,0.313-0.434,0.313-0.711v-7.525
				C427.292,24.904,426.875,24.488,426.345,24.488L426.345,24.488z"/>
			<path fill="#3A3A3A" d="M420.679,42.055c0.52,0,0.943,0.418,0.943,0.949c0,0.522-0.426,0.932-0.943,0.932
				c-0.516,0-0.943-0.408-0.943-0.932C419.734,42.473,420.164,42.055,420.679,42.055L420.679,42.055z"/>
			<path fill="#3A3A3A" d="M416.912,45.822c0.521,0,0.947,0.425,0.947,0.962c0,0.516-0.426,0.944-0.947,0.944
				c-0.516,0-0.941-0.43-0.941-0.944C415.97,46.246,416.396,45.822,416.912,45.822L416.912,45.822z"/>
		</g>
	</g>
	<g opacity="0.8">
		<g>
			<path fill="#3A3A3A" d="M320.812,34.488l-16.307,21.812l-16.289-21.812c-2.614-3.516-3.995-7.684-3.995-12.12
				c0-11.201,9.092-20.281,20.284-20.281c11.199,0,20.307,9.08,20.307,20.281C324.812,26.805,323.423,30.973,320.812,34.488
				L320.812,34.488z M304.505,0.209c-12.209,0-22.174,9.953-22.174,22.158c0,4.815,1.521,9.409,4.385,13.229l17.045,22.834
				c0.166,0.234,0.445,0.369,0.744,0.369s0.576-0.135,0.74-0.369l17.068-22.834c2.85-3.82,4.361-8.414,4.361-13.229
				C326.675,10.162,316.73,0.209,304.505,0.209L304.505,0.209z"/>
			<path fill="#3A3A3A" d="M302.957,18.477v0.543c0,1.545-1.262,2.787-2.814,2.787c-1.535,0-2.809-1.242-2.809-2.787v-0.543H302.957
				L302.957,18.477z M296.414,10.619c-0.531,0-0.936,0.418-0.936,0.918v7.481c0,2.254,1.594,4.131,3.725,4.607v9.613
				c0,0.502,0.428,0.938,0.939,0.938c0.521,0,0.926-0.438,0.926-0.938v-9.613c2.146-0.478,3.744-2.354,3.744-4.607v-7.481
				c0-0.5-0.426-0.918-0.918-0.918c-0.529,0-0.938,0.418-0.938,0.918v5.051h-1.889v-5.051c0-0.5-0.404-0.918-0.928-0.918
				c-0.512,0-0.938,0.418-0.938,0.918v5.051h-1.869v-5.051C297.333,11.037,296.923,10.619,296.414,10.619L296.414,10.619z"/>
			<path fill="#3A3A3A" d="M310.123,25.18c-0.852,0-1.57-0.69-1.57-1.522V14.03c0-0.831,0.719-1.543,1.57-1.543
				c0.859,0,1.553,0.712,1.553,1.543v11.15H310.123L310.123,25.18z M312.601,34.18c0.529,0,0.939-0.438,0.939-0.938V14.029
				c0-1.885-1.535-3.409-3.418-3.409c-1.885,0-3.438,1.524-3.438,3.409v9.628c0,1.854,1.553,3.391,3.438,3.391h1.553v6.193
				C311.675,33.742,312.093,34.18,312.601,34.18L312.601,34.18z"/>
			<path fill="#3A3A3A" d="M304.505,3.996c-10.125,0-18.389,8.256-18.389,18.371c0,4.211,1.455,8.313,4.063,11.541
				c0.329,0.401,0.93,0.479,1.334,0.146c0.405-0.324,0.45-0.918,0.12-1.301c-2.377-2.967-3.633-6.576-3.633-10.387
				c0-9.078,7.394-16.519,16.504-16.519c9.104,0,16.521,7.439,16.521,16.519c0,9.129-7.42,16.52-16.521,16.52
				c-3.816,0-7.387-1.256-10.354-3.648c-0.407-0.309-0.979-0.245-1.321,0.136c-0.314,0.416-0.252,0.994,0.151,1.338
				c3.25,2.604,7.354,4.061,11.524,4.061c10.146,0,18.389-8.256,18.389-18.403C322.894,12.252,314.65,3.996,304.505,3.996
				L304.505,3.996z"/>
		</g>
	</g>
</g>
</svg>
