<?xml version="1.0" encoding="utf-8"?>
<!-- Generator: Adobe Illustrator 16.0.0, SVG Export Plug-In . SVG Version: 6.00 Build 0)  -->
<!DOCTYPE svg PUBLIC "-//W3C//DTD SVG 1.1//EN" "http://www.w3.org/Graphics/SVG/1.1/DTD/svg11.dtd">
<svg version="1.1" id="레이어_1" xmlns="http://www.w3.org/2000/svg" xmlns:xlink="http://www.w3.org/1999/xlink" x="0px"
	 y="0px" width="65.266px" height="59.201px" viewBox="0 0 65.266 59.201" enable-background="new 0 0 65.266 59.201"
	 xml:space="preserve">
<g>
	<g>
		<g>
			<g>
				<defs>
					<rect id="SVGID_1_" x="0" width="65.266" height="59.201"/>
				</defs>
				<clipPath id="SVGID_2_">
					<use xlink:href="#SVGID_1_"  overflow="visible"/>
				</clipPath>
				<path clip-path="url(#SVGID_2_)" fill="#5C5C5C" d="M53.166,38.991l-0.106-2.057h6.996v2.057H53.166L53.166,38.991z
					 M48.232,51.683c-1.274-0.715-2.742-1.536-5.529-1.536c-2.785,0-4.273,0.821-5.528,1.536c-1.256,0.66-2.298,1.259-4.552,1.259
					c-2.253,0-3.296-0.599-4.53-1.259c-1.276-0.715-2.764-1.536-5.551-1.536c-2.766,0-4.253,0.821-5.529,1.536
					c-0.277,0.141-0.553,0.331-0.85,0.438c-0.724,0.374-1.511,0.649-2.597,0.768l0.938-21.532h28.9c0.573,0,1.041-0.481,1.041-1.078
					c0-0.557-0.468-1.025-1.041-1.025H13.206l0.275-6.259h38.281l0.276,6.259h-4.468c-0.572,0-1.062,0.468-1.062,1.025
					c0,0.596,0.489,1.078,1.062,1.078h3.169l0.937,21.532C50.125,52.741,49.232,52.258,48.232,51.683L48.232,51.683z M5.188,38.991
					v-2.057h6.996l-0.104,2.057H5.188L5.188,38.991z M30.88,10.782c0-0.938,0.808-1.725,1.742-1.725
					c0.936,0,1.724,0.787,1.724,1.725v10.122H30.88V10.782L30.88,10.782z M21.159,11.838h2.086v2.443
					c0,0.585-0.471,1.055-1.021,1.055c-0.596,0-1.064-0.47-1.064-1.055V11.838L21.159,11.838z M42.001,11.838h2.063v2.443
					c0,0.585-0.467,1.055-1.021,1.055c-0.575,0-1.042-0.47-1.042-1.055V11.838L42.001,11.838z M64.374,13.93
					c-0.555-0.065-1.085,0.331-1.17,0.904l-2.999,19.977h-7.233l-0.146-3.455h0.299c0.274,0,0.552-0.118,0.745-0.343
					c0.232-0.188,0.297-0.468,0.274-0.756l-0.34-8.353c-0.021-0.585-0.49-1-1.044-1h-8.696v-3.658
					c1.232-0.426,2.104-1.601,2.104-2.964v-3.5c0-0.543-0.466-1.034-1.02-1.034h-4.189c-0.574,0-1.042,0.491-1.042,1.034v3.5
					c0,1.363,0.87,2.538,2.084,2.964v3.658h-5.572V10.782c0-1.725-1.169-3.209-2.763-3.657V1.056C33.666,0.47,33.196,0,32.622,0
					c-0.575,0-1.043,0.47-1.043,1.056v6.068c-1.573,0.448-2.763,1.932-2.763,3.657v10.122h-5.571v-3.658
					c1.231-0.426,2.083-1.601,2.083-2.964v-3.5c0-0.543-0.448-1.034-1.021-1.034h-4.19c-0.597,0-1.04,0.491-1.04,1.034v3.5
					c0,1.363,0.869,2.538,2.082,2.964v3.658h-8.677c-0.554,0-1.021,0.416-1.042,1l-0.361,8.353c0,0.288,0.085,0.567,0.298,0.756
					c0.191,0.227,0.466,0.343,0.745,0.343h0.298l-0.128,3.455H5.063L2.041,14.834c-0.085-0.574-0.617-0.969-1.169-0.904
					C0.296,14.045-0.106,14.569,0,15.146l3.104,20.795v22.225c0,0.587,0.468,1.035,1.063,1.035c0.553,0,1.021-0.448,1.021-1.035
					V41.104h6.807l-0.554,12.84c0,0.267,0.105,0.566,0.299,0.769c0.188,0.202,0.467,0.31,0.742,0.31
					c1.298,0,2.275-0.172,3.128-0.405v3.55c0,0.587,0.468,1.035,1.04,1.035c0.576,0,1.043-0.448,1.043-1.035v-4.481
					c0.104-0.062,0.234-0.126,0.319-0.16c1.042-0.584,1.934-1.087,3.487-1.234v5.875c0,0.587,0.468,1.035,1.042,1.035
					c0.596,0,1.043-0.448,1.043-1.035v-5.875c1.574,0.147,2.487,0.65,3.509,1.234c1.274,0.685,2.743,1.496,5.528,1.496
					c2.786,0,4.23-0.812,5.551-1.496c0.999-0.584,1.915-1.087,3.486-1.234v5.875c0,0.587,0.469,1.035,1.043,1.035
					c0.572,0,1.044-0.448,1.044-1.035v-5.875c1.55,0.147,2.486,0.65,3.484,1.234c0.085,0.034,0.213,0.098,0.322,0.16v4.481
					c0,0.587,0.467,1.035,1.042,1.035c0.572,0,1.041-0.448,1.041-1.035v-3.55c0.829,0.233,1.849,0.405,3.124,0.405
					c0.279,0,0.554-0.108,0.747-0.31c0.19-0.203,0.319-0.502,0.297-0.769l-0.553-12.84h6.805v17.063
					c0,0.587,0.468,1.035,1.042,1.035c0.576,0,1.042-0.448,1.042-1.035V35.941l3.126-20.795
					C65.33,14.569,64.926,14.045,64.374,13.93L64.374,13.93z"/>
			</g>
		</g>
	</g>
</g>
</svg>
