<?xml version="1.0" encoding="utf-8"?>
<!-- Generator: Adobe Illustrator 16.0.0, SVG Export Plug-In . SVG Version: 6.00 Build 0)  -->
<!DOCTYPE svg PUBLIC "-//W3C//DTD SVG 1.1//EN" "http://www.w3.org/Graphics/SVG/1.1/DTD/svg11.dtd">
<svg version="1.1" id="레이어_1" xmlns="http://www.w3.org/2000/svg" xmlns:xlink="http://www.w3.org/1999/xlink" x="0px"
	 y="0px" width="47.854px" height="68.586px" viewBox="0 0 47.854 68.586" enable-background="new 0 0 47.854 68.586"
	 xml:space="preserve">
<g>
	<g>
		<circle fill="#FFD45C" cx="23.927" cy="43.545" r="23.926"/>
		<g>
			
				<path fill="#FFD45C" stroke="#FFFFFF" stroke-width="1.2194" stroke-linecap="round" stroke-linejoin="round" stroke-miterlimit="10" d="
				M11.961,31.848c0-0.985,0.801-1.788,1.786-1.788h14.683c0.988,0,1.788,0.803,1.788,1.788v17.954c0,0.99-0.8,1.789-1.788,1.789
				H13.747c-0.985,0-1.786-0.799-1.786-1.789V31.848z"/>
			
				<path fill="#FFD45C" stroke="#FFFFFF" stroke-width="1.2194" stroke-linecap="round" stroke-linejoin="round" stroke-miterlimit="10" d="
				M14.681,34.569c0-0.987,0.8-1.784,1.787-1.784h14.685c0.986,0,1.784,0.797,1.784,1.784v17.956c0,0.988-0.798,1.789-1.784,1.789
				H16.469c-0.987,0-1.787-0.801-1.787-1.789V34.569z"/>
			
				<path fill="#FFD45C" stroke="#FFFFFF" stroke-width="1.2194" stroke-linecap="round" stroke-linejoin="round" stroke-miterlimit="10" d="
				M17.404,37.291c0-0.986,0.799-1.787,1.783-1.787h14.686c0.985,0,1.786,0.801,1.786,1.787v17.957c0,0.984-0.801,1.785-1.786,1.785
				H19.187c-0.984,0-1.783-0.801-1.783-1.785V37.291z"/>
			
				<line fill="none" stroke="#FFFFFF" stroke-width="1.2194" stroke-linecap="round" stroke-linejoin="round" stroke-miterlimit="10" x1="20.076" y1="49.143" x2="33.185" y2="49.143"/>
			
				<path fill="#FFD45C" stroke="#FFFFFF" stroke-width="1.2194" stroke-linecap="round" stroke-linejoin="round" stroke-miterlimit="10" d="
				M24.909,41.882c0,1.309-1.063,2.369-2.368,2.369c-1.313,0-2.374-1.061-2.374-2.369s1.062-2.373,2.374-2.373
				C23.845,39.509,24.909,40.574,24.909,41.882z"/>
		</g>
	</g>
	<g>
		<g>
			<path fill="#4F4F4F" d="M9.445,12.105c0.501-0.232,0.822-0.489,0.964-0.771c0.143-0.282,0.151-0.557,0.026-0.825l-0.056-0.12
				c-0.148-0.318-0.376-0.501-0.685-0.548c-0.308-0.046-0.71-0.015-1.206,0.092c-0.36,0.079-0.725,0.156-1.092,0.229
				c-0.366,0.074-0.719,0.092-1.058,0.056C6,10.181,5.685,10.065,5.391,9.871C5.098,9.675,4.845,9.35,4.634,8.894L4.568,8.752
				c-0.11-0.239-0.18-0.51-0.205-0.812c-0.024-0.3,0.021-0.61,0.137-0.929s0.321-0.632,0.614-0.94
				c0.294-0.309,0.704-0.585,1.234-0.831C6.784,5.04,7.219,4.89,7.661,4.795c0.441-0.094,0.92-0.107,1.438-0.039l-0.152,1.38
				C8.532,6.082,8.175,6.087,7.87,6.154S7.257,6.326,6.946,6.469C6.7,6.584,6.499,6.713,6.344,6.855
				C6.19,6.999,6.075,7.144,5.999,7.293c-0.076,0.15-0.116,0.293-0.124,0.429S5.889,7.98,5.938,8.088L6,8.219
				c0.087,0.188,0.203,0.319,0.348,0.394c0.146,0.073,0.311,0.113,0.499,0.119c0.188,0.005,0.396-0.017,0.623-0.065
				c0.229-0.049,0.472-0.102,0.728-0.158c0.51-0.115,0.959-0.171,1.344-0.169c0.384,0.002,0.716,0.053,0.995,0.151
				c0.28,0.1,0.515,0.244,0.705,0.434c0.188,0.189,0.346,0.418,0.47,0.688l0.066,0.142c0.201,0.435,0.293,0.834,0.273,1.201
				c-0.019,0.366-0.121,0.699-0.308,1.002c-0.186,0.303-0.434,0.572-0.746,0.812c-0.314,0.236-0.659,0.443-1.035,0.618
				c-0.283,0.132-0.571,0.237-0.865,0.316c-0.293,0.079-0.578,0.135-0.855,0.166c-0.276,0.031-0.544,0.039-0.802,0.022
				c-0.259-0.017-0.494-0.051-0.703-0.104l0.159-1.423c0.334,0.092,0.724,0.127,1.172,0.104C8.514,12.446,8.973,12.325,9.445,12.105
				z"/>
			<path fill="#4F4F4F" d="M17.313,1.757l0.327,1.254l-2.45,0.637l1.854,7.114l-1.485,0.388l-1.853-7.114l-2.461,0.642L10.92,3.424
				L17.313,1.757z"/>
			<path fill="#4F4F4F" d="M25.217,1.114l0.073,1.269l-4.034,0.235L21.39,4.94l3.784-0.221l0.072,1.245l-3.783,0.221l0.147,2.526
				l4.118-0.24l0.073,1.269l-5.638,0.329l-0.504-8.632L25.217,1.114z"/>
			<path fill="#4F4F4F" d="M28.331,1.278l3.218,0.527c0.513,0.084,0.942,0.217,1.29,0.399c0.346,0.184,0.62,0.402,0.822,0.657
				c0.2,0.256,0.333,0.544,0.398,0.861c0.064,0.319,0.069,0.652,0.013,0.998l-0.04,0.249c-0.058,0.348-0.171,0.667-0.34,0.959
				c-0.169,0.293-0.396,0.535-0.679,0.729c-0.283,0.191-0.616,0.327-1.002,0.405c-0.386,0.079-0.826,0.078-1.324-0.004L28.983,6.78
				l-0.537,3.277l-1.515-0.248L28.331,1.278z M29.637,2.792l-0.444,2.71l1.503,0.246c0.497,0.081,0.902,0.051,1.218-0.093
				c0.315-0.143,0.514-0.462,0.596-0.96l0.034-0.212c0.038-0.237,0.034-0.436-0.012-0.598c-0.045-0.161-0.127-0.298-0.241-0.41
				c-0.116-0.111-0.262-0.201-0.437-0.267c-0.177-0.064-0.372-0.115-0.584-0.15L29.637,2.792z"/>
			<path fill="#4F4F4F" d="M41.079,9.379c0.336-0.118,0.612-0.231,0.826-0.339c0.213-0.107,0.387-0.213,0.52-0.318
				c0.132-0.104,0.233-0.209,0.306-0.316c0.071-0.107,0.133-0.216,0.187-0.322l0.043-0.087c0.103-0.207,0.112-0.437,0.027-0.688
				c-0.084-0.252-0.327-0.478-0.728-0.677c-0.144-0.071-0.292-0.127-0.445-0.168c-0.153-0.04-0.318-0.056-0.494-0.044
				c-0.175,0.011-0.364,0.054-0.568,0.131c-0.203,0.077-0.425,0.195-0.664,0.354l-0.694-1.189c0.175-0.118,0.381-0.239,0.616-0.363
				c0.236-0.124,0.5-0.213,0.79-0.27c0.291-0.056,0.609-0.065,0.952-0.028c0.343,0.036,0.712,0.153,1.106,0.349
				c0.437,0.218,0.785,0.458,1.046,0.723c0.263,0.264,0.45,0.537,0.563,0.821c0.113,0.284,0.159,0.571,0.137,0.857
				c-0.023,0.288-0.1,0.565-0.232,0.83L44.318,8.74c-0.211,0.422-0.506,0.778-0.886,1.067c-0.381,0.288-0.844,0.524-1.39,0.707
				l-3.421,1.166l3.683,1.831l-0.565,1.139l-5.476-2.724l0.514-1.031L41.079,9.379z"/>
		</g>
	</g>
</g>
</svg>
