<?xml version="1.0" encoding="utf-8"?>
<!-- Generator: Adobe Illustrator 16.0.0, SVG Export Plug-In . SVG Version: 6.00 Build 0)  -->
<!DOCTYPE svg PUBLIC "-//W3C//DTD SVG 1.1//EN" "http://www.w3.org/Graphics/SVG/1.1/DTD/svg11.dtd">
<svg version="1.1" id="레이어_1" xmlns="http://www.w3.org/2000/svg" xmlns:xlink="http://www.w3.org/1999/xlink" x="0px"
	 y="0px" width="47.852px" height="67.344px" viewBox="0 0 47.852 67.344" enable-background="new 0 0 47.852 67.344"
	 xml:space="preserve">
<g>
	<g>
		<circle fill="#FFD45C" cx="23.926" cy="42.301" r="23.926"/>
		<g>
			
				<path fill="#FFD45C" stroke="#FFFFFF" stroke-width="1.2155" stroke-linecap="round" stroke-linejoin="round" stroke-miterlimit="10" d="
				M30.62,29.445l-2.632,2.631l4.942,4.944l2.633-2.631c0.252-0.252,0.252-0.656,0-0.906l-4.036-4.038
				C31.277,29.195,30.87,29.195,30.62,29.445z"/>
			
				<polygon fill="#FFD45C" stroke="#FFFFFF" stroke-width="1.2155" stroke-linecap="round" stroke-linejoin="round" stroke-miterlimit="10" points="
				12.206,50.336 12.101,52.923 14.687,52.816 17.271,52.709 17.258,52.695 31.349,38.604 26.405,33.658 12.314,47.75 			"/>
		</g>
		
			<line fill="#FFD45C" stroke="#FFFFFF" stroke-width="1.2155" stroke-linecap="round" stroke-linejoin="round" stroke-miterlimit="10" x1="21.243" y1="52.923" x2="35.752" y2="52.923"/>
		
			<line fill="#FFD45C" stroke="#FFFFFF" stroke-width="1.2155" stroke-linecap="round" stroke-linejoin="round" stroke-miterlimit="10" x1="12.314" y1="47.631" x2="17.271" y2="52.588"/>
	</g>
	<g>
		<g>
			<path fill="#4F4F4F" d="M9.446,12.106c0.501-0.232,0.823-0.489,0.965-0.771c0.143-0.282,0.15-0.558,0.026-0.825l-0.056-0.12
				c-0.148-0.318-0.376-0.501-0.686-0.548C9.388,9.795,8.987,9.826,8.489,9.934c-0.359,0.079-0.723,0.155-1.09,0.229
				c-0.367,0.073-0.72,0.092-1.058,0.055c-0.34-0.036-0.655-0.152-0.949-0.346C5.1,9.677,4.847,9.351,4.635,8.896L4.569,8.753
				c-0.11-0.239-0.18-0.51-0.205-0.811S4.384,7.331,4.5,7.013c0.117-0.318,0.322-0.631,0.615-0.939S5.82,5.487,6.35,5.241
				c0.435-0.201,0.871-0.35,1.313-0.444c0.44-0.095,0.92-0.108,1.438-0.04l-0.152,1.38C8.533,6.082,8.175,6.088,7.87,6.154
				C7.567,6.221,7.258,6.326,6.947,6.471C6.7,6.586,6.5,6.715,6.346,6.856C6.192,6.999,6.076,7.146,6,7.295S5.883,7.588,5.875,7.724
				C5.867,7.858,5.889,7.98,5.94,8.09l0.062,0.13c0.087,0.188,0.203,0.32,0.348,0.394c0.146,0.074,0.31,0.113,0.498,0.119
				c0.188,0.006,0.396-0.016,0.624-0.064C7.7,8.619,7.943,8.565,8.198,8.509C8.708,8.395,9.156,8.338,9.541,8.34
				c0.384,0.002,0.717,0.053,0.996,0.153c0.278,0.099,0.514,0.243,0.703,0.433c0.19,0.189,0.348,0.418,0.472,0.687l0.066,0.142
				c0.201,0.436,0.292,0.835,0.273,1.201s-0.121,0.7-0.308,1.003c-0.186,0.302-0.435,0.573-0.748,0.811
				c-0.313,0.237-0.657,0.443-1.034,0.618c-0.283,0.133-0.57,0.237-0.864,0.317c-0.294,0.078-0.579,0.134-0.856,0.165
				c-0.275,0.031-0.543,0.04-0.802,0.023s-0.494-0.051-0.702-0.104l0.158-1.423c0.334,0.092,0.725,0.127,1.173,0.104
				C8.515,12.447,8.975,12.325,9.446,12.106z"/>
			<path fill="#4F4F4F" d="M17.312,1.758l0.327,1.253l-2.448,0.638l1.854,7.114l-1.485,0.388l-1.854-7.115l-2.46,0.642l-0.326-1.253
				L17.312,1.758z"/>
			<path fill="#4F4F4F" d="M25.215,1.115l0.073,1.269l-4.034,0.234l0.135,2.323l3.785-0.221l0.071,1.245l-3.783,0.221l0.147,2.526
				l4.118-0.241l0.073,1.27l-5.638,0.328L19.66,1.438L25.215,1.115z"/>
			<path fill="#4F4F4F" d="M28.329,1.278l3.219,0.527c0.512,0.084,0.942,0.218,1.29,0.4c0.345,0.183,0.619,0.402,0.821,0.656
				c0.201,0.257,0.334,0.544,0.399,0.862c0.064,0.319,0.069,0.651,0.013,0.999l-0.04,0.248c-0.058,0.348-0.172,0.667-0.341,0.959
				c-0.169,0.293-0.395,0.535-0.678,0.728s-0.617,0.328-1.003,0.406c-0.385,0.078-0.826,0.077-1.324-0.004l-1.703-0.279
				l-0.538,3.277L26.93,9.811L28.329,1.278z M29.636,2.793l-0.443,2.711l1.502,0.245c0.497,0.081,0.903,0.051,1.219-0.092
				c0.314-0.144,0.513-0.462,0.595-0.96l0.034-0.213c0.039-0.236,0.035-0.436-0.011-0.597s-0.128-0.298-0.242-0.41
				c-0.116-0.112-0.262-0.201-0.438-0.268c-0.175-0.064-0.37-0.114-0.582-0.149L29.636,2.793z"/>
			<path fill="#4F4F4F" d="M39.373,13.473l3.088-6.191l-2.264,0.132l-0.109-1.448l3.304-0.148l1.214,0.604l-3.858,7.739
				L39.373,13.473z"/>
		</g>
	</g>
</g>
</svg>
