<?xml version="1.0" encoding="utf-8"?>
<!-- Generator: Adobe Illustrator 16.0.0, SVG Export Plug-In . SVG Version: 6.00 Build 0)  -->
<!DOCTYPE svg PUBLIC "-//W3C//DTD SVG 1.1//EN" "http://www.w3.org/Graphics/SVG/1.1/DTD/svg11.dtd" [
	<!ENTITY ns_flows "http://ns.adobe.com/Flows/1.0/">
	<!ENTITY ns_extend "http://ns.adobe.com/Extensibility/1.0/">
	<!ENTITY ns_ai "http://ns.adobe.com/AdobeIllustrator/10.0/">
	<!ENTITY ns_graphs "http://ns.adobe.com/Graphs/1.0/">
]>
<svg version="1.1" id="레이어_1" xmlns:x="&ns_extend;" xmlns:i="&ns_ai;" xmlns:graph="&ns_graphs;"
	 xmlns="http://www.w3.org/2000/svg" xmlns:xlink="http://www.w3.org/1999/xlink" xmlns:a="http://ns.adobe.com/AdobeSVGViewerExtensions/3.0/"
	 x="0px" y="0px" width="42.759px" height="34.91px" viewBox="0 0 42.759 34.91" enable-background="new 0 0 42.759 34.91"
	 xml:space="preserve">
<g>
	<path fill="#020202" d="M18.687,2.393h6.442C24.027,0.942,22.304,0,20.341,0H6.02C2.687,0,0,2.687,0,6.018v6.017
		c0,2.476,1.494,4.595,3.626,5.525v6.545l5.42-6.018v-6.052C9.046,6.706,13.358,2.393,18.687,2.393z"/>
	<path fill="#020202" d="M35.544,4.857H18.616c-3.995,0-7.248,3.218-7.248,7.213v8.412c0,3.996,3.253,7.25,7.248,7.25h13.408
		l6.372,7.178v-7.777c2.567-1.11,4.362-3.673,4.362-6.65V12.07C42.759,8.075,39.539,4.857,35.544,4.857z M27.313,24.519
		c-0.814,0-1.477-0.662-1.477-1.477c0-0.84,0.662-1.502,1.477-1.502c0.842,0,1.503,0.662,1.503,1.502
		C28.816,23.857,28.155,24.519,27.313,24.519z M29.137,17.723c-0.429,0.214-0.557,1.092-0.557,1.392
		c0,0.686-0.557,1.242-1.265,1.242c-0.686,0-1.242-0.557-1.242-1.242c0-0.278,0.043-2.677,1.95-3.641
		c0.856-0.428,1.178-0.792,1.178-1.991c0-1.028-0.835-1.864-1.886-1.864c-1.027,0-1.863,0.835-1.863,1.864
		c0,0.685-0.557,1.263-1.263,1.263c-0.686,0-1.242-0.579-1.242-1.263c0-2.399,1.971-4.37,4.368-4.37c2.42,0,4.37,1.97,4.37,4.37
		C31.686,15.56,30.936,16.823,29.137,17.723z"/>
</g>
</svg>
