<?xml version="1.0" encoding="utf-8"?>
<!-- Generator: Adobe Illustrator 16.0.0, SVG Export Plug-In . SVG Version: 6.00 Build 0)  -->
<!DOCTYPE svg PUBLIC "-//W3C//DTD SVG 1.1//EN" "http://www.w3.org/Graphics/SVG/1.1/DTD/svg11.dtd">
<svg version="1.1" id="레이어_1" xmlns="http://www.w3.org/2000/svg" xmlns:xlink="http://www.w3.org/1999/xlink" x="0px"
	 y="0px" width="35.769px" height="35.776px" viewBox="0 0 35.769 35.776" enable-background="new 0 0 35.769 35.776"
	 xml:space="preserve">
<g>
	<g>
		<g>
			<path fill="#3A3839" d="M23.763,35.776c-3.936,0-7.847,0-11.771,0c-0.109-0.012-0.197-0.045-0.305-0.045
				c-1.414-0.057-2.811-0.113-4.191-0.479c-3.031-0.771-5.244-2.542-6.49-5.46c-0.723-1.66-0.908-3.416-0.943-5.225
				C0.051,24.302,0.026,24.034,0,23.782c0-3.939,0-7.871,0-11.789c0.018-0.098,0.042-0.205,0.042-0.303
				c0.029-1.408,0.111-2.814,0.436-4.203c0.799-3.033,2.581-5.225,5.486-6.499C7.63,0.29,9.401,0.102,11.202,0.06
				c0.258,0,0.527-0.023,0.789-0.06c3.93,0,7.836,0,11.771,0c0.108,0.036,0.217,0.042,0.314,0.042
				c1.416,0.06,2.814,0.131,4.191,0.457c3.051,0.777,5.244,2.554,6.483,5.469c0.727,1.66,0.897,3.42,0.956,5.228
				c0,0.269,0.022,0.534,0.061,0.802c0,3.914,0,7.846,0,11.785c-0.018,0.09-0.057,0.197-0.057,0.299
				c-0.035,1.396-0.098,2.811-0.441,4.178c-0.791,3.037-2.561,5.256-5.475,6.508c-1.656,0.727-3.418,0.896-5.221,0.934
				C24.313,35.694,24.053,35.739,23.763,35.776z M17.864,32.479c0,0.012,0,0.012,0,0.048c1.48,0,3.004,0.03,4.52-0.036
				c1.502-0.033,3.035-0.051,4.529-0.289c2.691-0.405,4.469-1.986,5.166-4.652c0.383-1.445,0.389-2.949,0.398-4.441
				c0.059-3.227,0.059-6.452,0-9.685c-0.01-1.532-0.041-3.075-0.277-4.588c-0.425-2.685-1.975-4.443-4.666-5.157
				c-1.453-0.389-2.947-0.389-4.426-0.428c-3.225-0.019-6.455-0.027-9.68,0c-1.537,0.039-3.08,0.074-4.574,0.313
				C6.151,3.972,4.376,5.548,3.67,8.214c-0.376,1.454-0.376,2.947-0.388,4.439c-0.041,3.23-0.068,6.453-0.018,9.686
				c0.029,1.533,0.08,3.08,0.286,4.585c0.438,2.692,1.993,4.448,4.649,5.16c1.285,0.356,2.576,0.368,3.885,0.384
				C13.999,32.527,15.948,32.479,17.864,32.479z"/>
			<path fill="#3A3839" d="M17.866,27.087c-5.047,0-9.192-4.154-9.192-9.203c0-5.082,4.146-9.213,9.231-9.195
				c5.051,0,9.183,4.137,9.183,9.211C27.077,22.948,22.935,27.087,17.866,27.087z M17.864,23.835c3.281,0,5.965-2.672,5.965-5.898
				c0-3.318-2.654-6.008-5.914-6.008c-3.312,0-5.979,2.648-5.979,5.92C11.936,21.14,14.577,23.835,17.864,23.835z"/>
			<path fill="#3A3839" d="M27.438,10.519c-1.205,0-2.156-0.963-2.156-2.18c0-1.201,0.951-2.178,2.143-2.178
				c1.196,0,2.15,0.954,2.15,2.16C29.601,9.534,28.628,10.519,27.438,10.519z"/>
		</g>
	</g>
</g>
</svg>
