<?xml version="1.0" encoding="utf-8"?>
<!-- Generator: Adobe Illustrator 16.0.0, SVG Export Plug-In . SVG Version: 6.00 Build 0)  -->
<!DOCTYPE svg PUBLIC "-//W3C//DTD SVG 1.1//EN" "http://www.w3.org/Graphics/SVG/1.1/DTD/svg11.dtd" [
	<!ENTITY ns_flows "http://ns.adobe.com/Flows/1.0/">
	<!ENTITY ns_extend "http://ns.adobe.com/Extensibility/1.0/">
	<!ENTITY ns_ai "http://ns.adobe.com/AdobeIllustrator/10.0/">
	<!ENTITY ns_graphs "http://ns.adobe.com/Graphs/1.0/">
]>
<svg version="1.1" id="레이어_1" xmlns:x="&ns_extend;" xmlns:i="&ns_ai;" xmlns:graph="&ns_graphs;"
	 xmlns="http://www.w3.org/2000/svg" xmlns:xlink="http://www.w3.org/1999/xlink" xmlns:a="http://ns.adobe.com/AdobeSVGViewerExtensions/3.0/"
	 x="0px" y="0px" width="65.394px" height="113.14px" viewBox="0 0 65.394 113.14" enable-background="new 0 0 65.394 113.14"
	 xml:space="preserve">
<g>
	<g>
		<path fill="#5C5C5C" d="M55.421,43.034H9.993c-1.315,0-2.446-0.836-2.864-2.018h51.156C57.888,42.198,56.738,43.034,55.421,43.034
			L55.421,43.034z M63.553,38.988H1.883c-0.565,0-1.047,0.461-1.047,1.016c0,0.564,0.482,1.013,1.047,1.013h3.134
			c0.459,2.321,2.53,4.065,4.976,4.065h45.428c2.467,0,4.517-1.745,4.976-4.065h3.156c0.565,0,0.982-0.449,0.982-1.013
			C64.535,39.449,64.118,38.988,63.553,38.988L63.553,38.988z"/>
		<path fill="#5C5C5C" d="M20.364,18.657c0.563,0,1.024,0.429,1.024,1.014c0,0.555-0.461,1.004-1.024,1.004
			c-0.545,0-1.025-0.449-1.025-1.004C19.338,19.086,19.818,18.657,20.364,18.657L20.364,18.657z"/>
		<path fill="#5C5C5C" d="M16.286,22.724c0.565,0,1.045,0.449,1.045,0.993c0,0.573-0.479,1.024-1.045,1.024
			c-0.563,0-0.983-0.451-0.983-1.024C15.303,23.173,15.723,22.724,16.286,22.724L16.286,22.724z"/>
		<path fill="#5C5C5C" d="M5.939,36.961c0.543,0,1.003-0.471,1.003-1.024c0-14.204,11.561-25.777,25.775-25.777
			c14.195,0,25.734,11.573,25.734,25.777c0,0.553,0.459,1.024,1.045,1.024c0.542,0,0.983-0.471,0.983-1.024
			c0-14.99-11.916-27.231-26.758-27.773V6.105h3.051c0.565,0,1.025-0.439,1.025-1.014c0-2.792-2.3-5.091-5.08-5.091
			c-2.823,0-5.102,2.299-5.102,5.091c0,0.575,0.46,1.014,1.025,1.014s1.024-0.439,1.024-1.014c0-1.683,1.379-3.063,3.052-3.063
			c1.316,0,2.445,0.877,2.863,2.059h-2.863c-0.563,0-1.024,0.439-1.024,1.004v3.073C16.829,8.706,4.914,20.947,4.914,35.937
			C4.914,36.49,5.352,36.961,5.939,36.961L5.939,36.961z"/>
	</g>
	<g>
		<path fill="#5C5C5C" d="M8.051,82.879c-0.398,0-0.816-0.366-0.921-0.773l-0.92-6.115v5.906c0,0.534-0.459,0.982-0.983,0.982h-0.73
			c-0.585,0-1.003-0.449-1.003-0.982v-16.39c0-0.543,0.418-1.004,1.003-1.004h0.795c0.397,0,0.835,0.377,0.918,0.764l2.153,10.985
			l2.134-10.985c0.083-0.387,0.542-0.764,0.939-0.764h0.816c0.563,0,0.981,0.461,0.981,1.004v16.39c0,0.534-0.418,0.982-0.981,0.982
			H11.52c-0.565,0-1.002-0.449-1.002-0.982v-5.854l-0.9,6.031c-0.104,0.439-0.543,0.805-0.939,0.805H8.051z"/>
		<path fill="#5C5C5C" d="M15.639,69.813c0-3.428,1.504-5.311,4.453-5.311c2.988,0,4.451,1.862,4.451,5.311v7.725
			c0,2.153-0.543,3.418-1.398,4.244c-0.899,0.857-2.071,1.097-3.053,1.097c-0.984,0-2.135-0.239-3.012-1.097
			c-0.877-0.826-1.441-2.091-1.441-4.244V69.813z M18.335,77.538c0,1.809,0.586,2.644,1.757,2.644c1.128,0,1.712-0.804,1.712-2.644
			v-7.725c0-1.788-0.562-2.603-1.712-2.603c-1.213,0-1.757,0.847-1.757,2.603V77.538z"/>
		<path fill="#5C5C5C" d="M30.628,75.637l2.445-10.391c0.062-0.397,0.543-0.763,0.961-0.763h0.753c0.69,0,1.108,0.595,0.982,1.202
			l-3.889,16.389c-0.104,0.439-0.521,0.762-0.939,0.762h-0.565c-0.46,0-0.857-0.323-0.983-0.762l-3.848-16.389
			c-0.145-0.607,0.273-1.202,0.964-1.202h0.771c0.398,0,0.816,0.365,0.942,0.763L30.628,75.637z"/>
		<path fill="#5C5C5C" d="M39.929,81.896c0,0.534-0.459,0.982-0.981,0.982h-0.754c-0.542,0-0.981-0.449-0.981-0.982v-16.39
			c0-0.543,0.438-1.004,0.981-1.004h0.754c0.522,0,0.981,0.461,0.981,1.004V81.896z"/>
		<path fill="#5C5C5C" d="M49.192,82.879c-0.316,0-0.794-0.324-0.9-0.585l-3.784-9.396v8.999c0,0.534-0.459,0.982-0.983,0.982
			h-0.774c-0.521,0-0.98-0.449-0.98-0.982v-16.39c0-0.543,0.459-1.004,0.98-1.004H43.4c0.356,0,0.773,0.314,0.878,0.608l3.805,9.375
			v-8.979c0-0.543,0.418-1.004,0.983-1.004h0.772c0.501,0,0.963,0.461,0.963,1.004v16.39c0,0.534-0.462,0.982-0.963,0.982H49.192z"
			/>
		<path fill="#5C5C5C" d="M60.961,73.671c0.521,0,0.92,0.428,0.92,0.972v2.927c0,3.459-1.422,5.31-4.454,5.31
			c-2.99,0-4.494-1.881-4.494-5.31v-7.756c0-3.46,1.503-5.311,4.494-5.311c3.031,0,4.454,1.851,4.454,5.311v0.365
			c0,0.565-0.398,0.983-0.92,0.983h-0.815c-0.524,0-0.942-0.418-0.942-0.983v-0.365c0-1.276-0.292-1.924-0.605-2.248
			c-0.355-0.304-0.774-0.354-1.171-0.354c-0.376,0-0.836,0.051-1.129,0.354c-0.396,0.345-0.626,0.993-0.626,2.248
			c0,4.317,0,7.056,0,7.756c0,1.777,0.564,2.612,1.755,2.612c1.192,0,1.776-0.835,1.776-2.612V76.42h-0.98
			c-1.507,0-1.61-2.749,0-2.749H60.961z"/>
	</g>
	<g>
		<path fill="#5C5C5C" d="M6.65,95.244c0.144-0.22,0.562-0.47,0.835-0.47h0.919c0.858,0,1.296,0.794,0.858,1.485l-4.557,7.316
			l4.577,8.101c0.398,0.71-0.062,1.463-0.878,1.463H7.547c-0.292,0-0.711-0.251-0.856-0.48l-3.638-6.378l-0.335,0.482v5.393
			c0,0.543-0.439,0.983-0.982,0.983H0.983C0.418,113.14,0,112.7,0,112.157V95.756c0-0.543,0.418-0.982,0.983-0.982h0.753
			c0.543,0,0.982,0.439,0.982,0.982v5.896L6.65,95.244z"/>
		<path fill="#5C5C5C" d="M13.82,112.157c0,0.543-0.46,0.983-0.983,0.983h-0.774c-0.543,0-0.961-0.439-0.961-0.983V95.756
			c0-0.543,0.418-0.982,0.961-0.982h0.774c0.523,0,0.983,0.439,0.983,0.982V112.157z"/>
		<path fill="#5C5C5C" d="M15.556,95.735c0-0.542,0.418-0.972,0.981-0.972h7.129c0.564,0,0.982,0.429,0.982,0.972v0.775
			c0,0.542-0.418,0.96-0.982,0.96h-2.215v14.655c0,0.533-0.44,0.992-0.984,0.992h-0.752c-0.565,0-0.983-0.459-0.983-0.992V97.471
			h-2.195c-0.563,0-0.981-0.418-0.981-0.96V95.735z"/>
		<path fill="#5C5C5C" d="M25.234,100.083c0-2.059,0.606-3.438,1.484-4.232c0.878-0.827,1.986-1.077,3.009-1.077
			c1.025,0,2.111,0.25,2.99,1.077c0.879,0.794,1.442,2.173,1.442,4.232v0.388c0,0.533-0.418,0.981-0.941,0.981h-0.772
			c-0.544,0-0.984-0.448-0.984-0.981v-0.388c0-1.828-0.606-2.612-1.735-2.612c-1.127,0-1.714,0.785-1.714,2.612v7.705
			c0,1.83,0.544,2.635,1.714,2.635c0.523,0,1.025-0.199,1.276-0.471c0.313-0.449,0.459-1.181,0.459-2.164v-0.386
			c0-0.544,0.439-0.973,0.984-0.973h0.772c0.523,0,0.941,0.429,0.941,0.973v0.386c0,2.164-0.563,3.406-1.401,4.242
			c-0.897,0.879-2.026,1.11-3.031,1.11c-1.022,0-2.153-0.231-3.051-1.11c-0.836-0.836-1.442-2.079-1.442-4.242V100.083z"/>
		<path fill="#5C5C5C" d="M41.771,102.613v-6.857c0-0.543,0.438-0.982,1.002-0.982h0.752c0.543,0,0.983,0.439,0.983,0.982v16.401
			c0,0.543-0.439,0.983-0.983,0.983h-0.752c-0.564,0-1.002-0.439-1.002-0.983V105.3h-3.031v6.856c0,0.543-0.398,0.983-0.963,0.983
			h-0.772c-0.543,0-0.984-0.439-0.984-0.983V95.756c0-0.543,0.441-0.982,0.984-0.982h0.772c0.564,0,0.963,0.439,0.963,0.982v6.857
			H41.771z"/>
		<path fill="#5C5C5C" d="M53.582,94.774c0.563,0,1.003,0.439,1.003,0.982v0.755c0,0.542-0.44,0.96-1.003,0.96h-4.161v5.132h3.449
			c0.523,0,0.962,0.428,0.962,0.972v0.731c0,0.533-0.439,0.973-0.962,0.973h-3.449v5.143h4.161c0.563,0,1.003,0.448,1.003,1.002
			v0.732c0,0.543-0.44,0.983-1.003,0.983h-5.875c-0.543,0-0.983-0.439-0.983-0.983V95.756c0-0.543,0.44-0.982,0.983-0.982H53.582z"
			/>
		<path fill="#5C5C5C" d="M63.763,113.14c-0.314,0-0.774-0.313-0.879-0.584l-3.783-9.367v8.968c0,0.543-0.46,0.983-1.005,0.983
			h-0.772c-0.523,0-1.003-0.439-1.003-0.983V95.756c0-0.543,0.479-0.982,1.003-0.982h0.649c0.354,0,0.794,0.303,0.919,0.596
			l3.783,9.376v-8.99c0-0.543,0.396-0.982,0.962-0.982h0.773c0.543,0,0.983,0.439,0.983,0.982v16.401
			c0,0.543-0.44,0.983-0.983,0.983H63.763z"/>
	</g>
</g>
</svg>
